{
  "packets":{
    "actorList":["0-57"],
    "ai":[],
    "cellChangeFrom":[],
    "cellChangeTo":[],
    "container":["76400-0","0-57"],
    "death":[],
    "delete":[],
    "doorState":[],
    "equipment":[],
    "lock":[],
    "place":[],
    "position":["0-57"],
    "scale":[],
    "spawn":["0-57"],
    "state":[],
    "statsDynamic":["0-57"],
    "trap":[],
    "spellsActive":[],
    "miscellaneous":[],
    "clientScriptLocal":[]
  },
  "entry":{
    "creationTime":1648949730,
    "description":"-1, -4"
  },
  "lastVisit":{
    "Arnas":1651034723,
    "test":1648956565,
    "Katherine":1651034949,
    "Matrim":1651034724
  },
  "recordLinks":[],
  "objectData":{
    "0-57":{
      "refId":"rat",
      "location":{
        "posX":-2605.771484375,
        "posZ":917.05419921875,
        "posY":-28201.84375,
        "rotX":-0.064091078937054,
        "rotY":0,
        "rotZ":-1.4191057682037
      },
      "stats":{
        "healthCurrent":23,
        "magickaCurrent":10,
        "healthModified":23,
        "fatigueBase":300,
        "fatigueModified":300,
        "healthBase":23,
        "magickaModified":10,
        "magickaBase":10,
        "fatigueCurrent":300
      },
      "inventory":[]
    },
    "76400-0":{
      "refId":"flora_corkbulb",
      "inventory":[{
          "refId":"ingred_corkbulb_root_01",
          "count":1,
          "charge":-1,
          "enchantmentCharge":-1,
          "soul":""
        }]
    }
  },
  "loadState":{
    "hasFullContainerData":true,
    "hasFullActorList":true
  }
}