{
  "packets":{
    "actorList":["0-530","0-533","0-531","0-532"],
    "ai":[],
    "cellChangeFrom":[],
    "cellChangeTo":[],
    "container":["475922-0","475923-0","475924-0","475925-0","475926-0","475927-0","0-530","0-533","0-531","0-532"],
    "death":[],
    "delete":[],
    "doorState":[],
    "equipment":[],
    "lock":[],
    "place":[],
    "position":["0-530","0-531","0-532","0-533"],
    "scale":[],
    "spawn":["0-530","0-533","0-531","0-532"],
    "state":[],
    "statsDynamic":["0-530","0-531","0-532","0-533"],
    "trap":[],
    "spellsActive":[],
    "miscellaneous":[],
    "clientScriptLocal":[]
  },
  "entry":{
    "creationTime":1651353125,
    "description":"-1, 0"
  },
  "lastVisit":{
    "Matrim":1651353140
  },
  "recordLinks":[],
  "objectData":{
    "0-530":{
      "refId":"rat_diseased",
      "location":{
        "posX":-3762.3217773438,
        "posZ":1176.3505859375,
        "posY":1244.5567626953,
        "rotX":0,
        "rotY":0,
        "rotZ":0
      },
      "stats":{
        "healthCurrent":23,
        "magickaCurrent":10,
        "healthModified":23,
        "fatigueBase":115,
        "fatigueModified":115,
        "healthBase":23,
        "magickaModified":10,
        "magickaBase":10,
        "fatigueCurrent":115
      },
      "inventory":[{
          "refId":"ingred_rat_meat_01",
          "count":2,
          "charge":-1,
          "enchantmentCharge":-1,
          "soul":""
        }]
    },
    "475926-0":{
      "refId":"flora_stoneflower_01",
      "inventory":[{
          "refId":"ingred_stoneflower_petals_01",
          "count":1,
          "charge":-1,
          "enchantmentCharge":-1,
          "soul":""
        }]
    },
    "475923-0":{
      "refId":"flora_stoneflower_01",
      "inventory":[{
          "refId":"ingred_stoneflower_petals_01",
          "count":1,
          "charge":-1,
          "enchantmentCharge":-1,
          "soul":""
        }]
    },
    "475927-0":{
      "refId":"flora_stoneflower_01",
      "inventory":[{
          "refId":"ingred_stoneflower_petals_01",
          "count":1,
          "charge":-1,
          "enchantmentCharge":-1,
          "soul":""
        }]
    },
    "475922-0":{
      "refId":"flora_stoneflower_02",
      "inventory":[{
          "refId":"ingred_stoneflower_petals_01",
          "count":1,
          "charge":-1,
          "enchantmentCharge":-1,
          "soul":""
        }]
    },
    "0-531":{
      "refId":"kagouti",
      "location":{
        "posX":-1699.6138916016,
        "posZ":534.94006347656,
        "posY":2058.2253417969,
        "rotX":0,
        "rotY":0,
        "rotZ":4.6831860542297
      },
      "stats":{
        "healthCurrent":45,
        "magickaCurrent":10,
        "healthModified":45,
        "fatigueBase":400,
        "fatigueModified":400,
        "healthBase":45,
        "magickaModified":10,
        "magickaBase":10,
        "fatigueCurrent":400
      },
      "inventory":[]
    },
    "475924-0":{
      "refId":"flora_stoneflower_01",
      "inventory":[{
          "refId":"ingred_stoneflower_petals_01",
          "count":1,
          "charge":-1,
          "enchantmentCharge":-1,
          "soul":""
        }]
    },
    "0-532":{
      "refId":"nix-hound",
      "location":{
        "posX":-7240.5908203125,
        "posZ":1539.8436279297,
        "posY":7194.40625,
        "rotX":0.36236128211021,
        "rotY":0,
        "rotZ":-1.9502093791962
      },
      "stats":{
        "healthCurrent":23,
        "magickaCurrent":10,
        "healthModified":23,
        "fatigueBase":400,
        "fatigueModified":400,
        "healthBase":23,
        "magickaModified":10,
        "magickaBase":10,
        "fatigueCurrent":400
      },
      "inventory":[{
          "refId":"ingred_hound_meat_01",
          "count":1,
          "charge":-1,
          "enchantmentCharge":-1,
          "soul":""
        }]
    },
    "0-533":{
      "refId":"scrib diseased",
      "location":{
        "posX":-7429.79296875,
        "posZ":1526.0614013672,
        "posY":7283.9755859375,
        "rotX":0,
        "rotY":0,
        "rotZ":0
      },
      "stats":{
        "healthCurrent":8,
        "magickaCurrent":12,
        "healthModified":8,
        "fatigueBase":77,
        "fatigueModified":77,
        "healthBase":8,
        "magickaModified":12,
        "magickaBase":12,
        "fatigueCurrent":77
      },
      "inventory":[]
    },
    "475925-0":{
      "refId":"flora_stoneflower_02",
      "inventory":[{
          "refId":"ingred_stoneflower_petals_01",
          "count":1,
          "charge":-1,
          "enchantmentCharge":-1,
          "soul":""
        }]
    }
  },
  "loadState":{
    "hasFullContainerData":true,
    "hasFullActorList":true
  }
}