{
  "packets":{
    "actorList":["0-125","0-127","0-126"],
    "ai":[],
    "cellChangeFrom":[],
    "cellChangeTo":[],
    "container":["164202-0","164206-0","164207-0","164229-0","0-125","0-127","0-126"],
    "death":[],
    "delete":[],
    "doorState":[],
    "equipment":[],
    "lock":[],
    "place":[],
    "position":["0-125","0-126","0-127"],
    "scale":[],
    "spawn":["0-125","0-127","0-126"],
    "state":[],
    "statsDynamic":["0-125","0-126","0-127"],
    "trap":[],
    "spellsActive":[],
    "miscellaneous":[],
    "clientScriptLocal":[]
  },
  "entry":{
    "creationTime":1649820608,
    "description":"0, -1"
  },
  "lastVisit":{
    "Arnas":1649823203,
    "Katherine":1649823205,
    "Matrim":1649823243
  },
  "recordLinks":[],
  "objectData":{
    "0-125":{
      "refId":"kwama forager",
      "location":{
        "posX":7019.6240234375,
        "posZ":948.87109375,
        "posY":-7123.759765625,
        "rotX":-0.095258474349976,
        "rotY":0,
        "rotZ":-1.4428770542145
      },
      "stats":{
        "healthCurrent":23,
        "magickaCurrent":15,
        "healthModified":23,
        "fatigueBase":300,
        "fatigueModified":300,
        "healthBase":23,
        "magickaModified":15,
        "magickaBase":15,
        "fatigueCurrent":300
      },
      "inventory":[]
    },
    "164206-0":{
      "refId":"tramaroot_02",
      "inventory":[]
    },
    "164207-0":{
      "refId":"tramaroot_03",
      "inventory":[{
          "refId":"ingred_trama_root_01",
          "count":1,
          "charge":-1,
          "enchantmentCharge":-1,
          "soul":""
        }]
    },
    "0-126":{
      "refId":"cliff racer",
      "location":{
        "posX":5067.6577148438,
        "posZ":4463.6831054688,
        "posY":-2088.6970214844,
        "rotX":-0.0044579897075891,
        "rotY":0,
        "rotZ":-2.0841138362885
      },
      "stats":{
        "healthCurrent":45,
        "magickaCurrent":20,
        "healthModified":45,
        "fatigueBase":400,
        "fatigueModified":400,
        "healthBase":45,
        "magickaModified":20,
        "magickaBase":20,
        "fatigueCurrent":400
      },
      "inventory":[]
    },
    "0-127":{
      "refId":"cliff racer",
      "location":{
        "posX":2655.1452636719,
        "posZ":3961.1782226563,
        "posY":-7204.3857421875,
        "rotX":-0.0068580247461796,
        "rotY":0,
        "rotZ":-2.9040195941925
      },
      "stats":{
        "healthCurrent":45,
        "magickaCurrent":20,
        "healthModified":45,
        "fatigueBase":400,
        "fatigueModified":400,
        "healthBase":45,
        "magickaModified":20,
        "magickaBase":20,
        "fatigueCurrent":400
      },
      "inventory":[{
          "refId":"ingred_racer_plumes_01",
          "count":1,
          "charge":-1,
          "enchantmentCharge":-1,
          "soul":""
        }]
    },
    "164202-0":{
      "refId":"tramaroot_05",
      "inventory":[{
          "refId":"ingred_trama_root_01",
          "count":1,
          "charge":-1,
          "enchantmentCharge":-1,
          "soul":""
        }]
    },
    "164229-0":{
      "refId":"contain_trama_shrub_01",
      "inventory":[{
          "refId":"ingred_trama_root_01",
          "count":2,
          "charge":-1,
          "enchantmentCharge":-1,
          "soul":""
        }]
    }
  },
  "loadState":{
    "hasFullContainerData":true,
    "hasFullActorList":true
  }
}