{
  "packets":{
    "actorList":["0-171","0-173","0-172"],
    "ai":[],
    "cellChangeFrom":[],
    "cellChangeTo":[],
    "container":["266032-0","461689-0","461696-0","461703-0","461711-0","461716-0","461722-0","461726-0","478392-0","478394-0","478403-0","478405-0","478406-0","0-171","0-173","0-172"],
    "death":["0-173"],
    "delete":[],
    "doorState":[],
    "equipment":[],
    "lock":[],
    "place":[],
    "position":["0-171","0-172","0-173"],
    "scale":[],
    "spawn":["0-171","0-173","0-172"],
    "state":[],
    "statsDynamic":["0-171","0-172","0-173"],
    "trap":[],
    "spellsActive":[],
    "miscellaneous":[],
    "clientScriptLocal":[]
  },
  "entry":{
    "creationTime":1649824213,
    "description":"1, -10"
  },
  "lastVisit":{
    "Arnas":1651032596,
    "Katherine":1651032635,
    "Matrim":1651032604
  },
  "recordLinks":[],
  "objectData":{
    "0-171":{
      "refId":"rat",
      "location":{
        "posX":15466.181640625,
        "posZ":548.76226806641,
        "posY":-79775.34375,
        "rotX":-0.1337568461895,
        "rotY":0,
        "rotZ":-2.5994760990143
      },
      "stats":{
        "healthCurrent":23,
        "magickaCurrent":10,
        "healthModified":23,
        "fatigueBase":300,
        "fatigueModified":300,
        "healthBase":23,
        "magickaModified":10,
        "magickaBase":10,
        "fatigueCurrent":300
      },
      "inventory":[{
          "refId":"ingred_rat_meat_01",
          "count":1,
          "charge":-1,
          "enchantmentCharge":-1,
          "soul":""
        }]
    },
    "461689-0":{
      "refId":"kollop_02_pearl",
      "inventory":[]
    },
    "461703-0":{
      "refId":"kollop_03_pearl",
      "inventory":[{
          "refId":"ingred_pearl_01",
          "count":1,
          "charge":-1,
          "enchantmentCharge":-1,
          "soul":""
        }]
    },
    "461726-0":{
      "refId":"kollop_02_pearl",
      "inventory":[]
    },
    "478394-0":{
      "refId":"flora_comberry_01",
      "inventory":[{
          "refId":"ingred_comberry_01",
          "count":1,
          "charge":-1,
          "enchantmentCharge":-1,
          "soul":""
        }]
    },
    "478405-0":{
      "refId":"flora_heather_01",
      "inventory":[{
          "refId":"ingred_heather_01",
          "count":2,
          "charge":-1,
          "enchantmentCharge":-1,
          "soul":""
        }]
    },
    "461696-0":{
      "refId":"kollop_02_pearl",
      "inventory":[]
    },
    "0-173":{
      "refId":"slaughterfish_small",
      "location":{
        "posX":8447.25390625,
        "posZ":-71.463813781738,
        "posY":-80100.1953125,
        "rotX":-0.2334980070591,
        "rotY":0,
        "rotZ":-2.2525527477264
      },
      "stats":{
        "healthCurrent":0,
        "magickaCurrent":10,
        "healthModified":15,
        "fatigueBase":300,
        "fatigueModified":300,
        "healthBase":15,
        "magickaModified":10,
        "magickaBase":10,
        "fatigueCurrent":300
      },
      "inventory":[],
      "killer":{
        "playerName":"Matrim"
      },
      "deathState":38
    },
    "478403-0":{
      "refId":"flora_heather_01",
      "inventory":[{
          "refId":"ingred_heather_01",
          "count":2,
          "charge":-1,
          "enchantmentCharge":-1,
          "soul":""
        }]
    },
    "461716-0":{
      "refId":"kollop_03_pearl",
      "inventory":[{
          "refId":"ingred_pearl_01",
          "count":1,
          "charge":-1,
          "enchantmentCharge":-1,
          "soul":""
        }]
    },
    "0-172":{
      "refId":"kwama forager",
      "location":{
        "posX":15797.2890625,
        "posZ":412.56610107422,
        "posY":-77250.8828125,
        "rotX":-0.083174400031567,
        "rotY":0,
        "rotZ":1.1131703853607
      },
      "stats":{
        "healthCurrent":23,
        "magickaCurrent":15,
        "healthModified":23,
        "fatigueBase":300,
        "fatigueModified":300,
        "healthBase":23,
        "magickaModified":15,
        "magickaBase":15,
        "fatigueCurrent":300
      },
      "inventory":[{
          "refId":"ingred_kwama_cuttle_01",
          "count":1,
          "charge":-1,
          "enchantmentCharge":-1,
          "soul":""
        }]
    },
    "461722-0":{
      "refId":"kollop_03_pearl",
      "inventory":[]
    },
    "266032-0":{
      "refId":"flora_bc_mushroom_08",
      "inventory":[{
          "refId":"ingred_coprinus_01",
          "count":2,
          "charge":-1,
          "enchantmentCharge":-1,
          "soul":""
        }]
    },
    "478392-0":{
      "refId":"flora_corkbulb",
      "inventory":[{
          "refId":"ingred_corkbulb_root_01",
          "count":1,
          "charge":-1,
          "enchantmentCharge":-1,
          "soul":""
        }]
    },
    "478406-0":{
      "refId":"flora_heather_01",
      "inventory":[{
          "refId":"ingred_heather_01",
          "count":2,
          "charge":-1,
          "enchantmentCharge":-1,
          "soul":""
        }]
    },
    "461711-0":{
      "refId":"kollop_03_pearl",
      "inventory":[]
    }
  },
  "loadState":{
    "hasFullContainerData":true,
    "hasFullActorList":true
  }
}