{
  "packets":{
    "actorList":["259450-0","259451-0","259453-0"],
    "ai":[],
    "cellChangeFrom":[],
    "cellChangeTo":[],
    "container":["259450-0","259451-0","259453-0"],
    "death":[],
    "delete":[],
    "doorState":[],
    "equipment":["259450-0","259451-0","259453-0"],
    "lock":[],
    "place":[],
    "position":["259450-0","259451-0","259453-0"],
    "scale":[],
    "spawn":[],
    "state":[],
    "statsDynamic":["259450-0","259451-0","259453-0"],
    "trap":[],
    "spellsActive":[],
    "miscellaneous":[],
    "clientScriptLocal":[]
  },
  "entry":{
    "creationTime":1651026804,
    "description":"5, -11"
  },
  "lastVisit":{
    "Arnas":1651027309,
    "Katherine":1651027311,
    "Matrim":1651027902
  },
  "recordLinks":[],
  "objectData":{
    "259450-0":{
      "refId":"aron andaren",
      "location":{
        "posX":41333.75,
        "posZ":577,
        "posY":-87249.671875,
        "rotX":0.014774972572923,
        "rotY":0,
        "rotZ":-0.12849879264832
      },
      "stats":{
        "healthCurrent":57,
        "magickaCurrent":84,
        "healthModified":57,
        "fatigueBase":169,
        "fatigueModified":169,
        "healthBase":57,
        "magickaModified":84,
        "magickaBase":84,
        "fatigueCurrent":169
      },
      "equipment":{
        "7":{
          "refId":"common_shoes_05",
          "count":1,
          "charge":-1,
          "enchantmentCharge":-1
        },
        "11":{
          "refId":"common_robe_05",
          "count":1,
          "charge":-1,
          "enchantmentCharge":-1
        }
      },
      "inventory":[{
          "refId":"common_robe_05",
          "count":1,
          "charge":-1,
          "enchantmentCharge":-1,
          "soul":""
        },{
          "refId":"common_shoes_05",
          "count":1,
          "charge":-1,
          "enchantmentCharge":-1,
          "soul":""
        },{
          "refId":"ingred_bread_01",
          "count":3,
          "charge":-1,
          "enchantmentCharge":-1,
          "soul":""
        },{
          "refId":"gold_001",
          "count":3,
          "charge":-1,
          "enchantmentCharge":-1,
          "soul":""
        }]
    },
    "259451-0":{
      "refId":"ordinator wander",
      "location":{
        "posX":45014.44921875,
        "posZ":1176.9588623047,
        "posY":-85929.3671875,
        "rotX":-0.50771445035934,
        "rotY":0,
        "rotZ":0.02697491645813
      },
      "stats":{
        "healthCurrent":181,
        "magickaCurrent":122,
        "healthModified":181,
        "fatigueBase":318,
        "fatigueModified":318,
        "healthBase":181,
        "magickaModified":122,
        "magickaBase":122,
        "fatigueCurrent":318
      },
      "equipment":{
        "0":{
          "refId":"indoril helmet",
          "count":1,
          "charge":-1,
          "enchantmentCharge":-1
        },
        "1":{
          "refId":"indoril cuirass",
          "count":1,
          "charge":-1,
          "enchantmentCharge":-1
        },
        "3":{
          "refId":"indoril pauldron left",
          "count":1,
          "charge":-1,
          "enchantmentCharge":-1
        },
        "4":{
          "refId":"indoril pauldron right",
          "count":1,
          "charge":-1,
          "enchantmentCharge":-1
        },
        "5":{
          "refId":"indoril left gauntlet",
          "count":1,
          "charge":-1,
          "enchantmentCharge":-1
        },
        "6":{
          "refId":"indoril right gauntlet",
          "count":1,
          "charge":-1,
          "enchantmentCharge":-1
        },
        "7":{
          "refId":"indoril boots",
          "count":1,
          "charge":-1,
          "enchantmentCharge":-1
        },
        "9":{
          "refId":"expensive_pants_02",
          "count":1,
          "charge":-1,
          "enchantmentCharge":-1
        },
        "15":{
          "refId":"indoril_belt",
          "count":1,
          "charge":-1,
          "enchantmentCharge":-1
        },
        "16":{
          "refId":"ebony mace",
          "count":1,
          "charge":-1,
          "enchantmentCharge":-1
        },
        "17":{
          "refId":"indoril shield",
          "count":1,
          "charge":-1,
          "enchantmentCharge":-1
        }
      },
      "inventory":[{
          "refId":"indoril shield",
          "count":1,
          "charge":-1,
          "enchantmentCharge":-1,
          "soul":""
        },{
          "refId":"indoril right gauntlet",
          "count":1,
          "charge":-1,
          "enchantmentCharge":-1,
          "soul":""
        },{
          "refId":"indoril left gauntlet",
          "count":1,
          "charge":-1,
          "enchantmentCharge":-1,
          "soul":""
        },{
          "refId":"indoril boots",
          "count":1,
          "charge":-1,
          "enchantmentCharge":-1,
          "soul":""
        },{
          "refId":"indoril pauldron right",
          "count":1,
          "charge":-1,
          "enchantmentCharge":-1,
          "soul":""
        },{
          "refId":"indoril pauldron left",
          "count":1,
          "charge":-1,
          "enchantmentCharge":-1,
          "soul":""
        },{
          "refId":"indoril cuirass",
          "count":1,
          "charge":-1,
          "enchantmentCharge":-1,
          "soul":""
        },{
          "refId":"indoril helmet",
          "count":1,
          "charge":-1,
          "enchantmentCharge":-1,
          "soul":""
        },{
          "refId":"indoril_belt",
          "count":1,
          "charge":-1,
          "enchantmentCharge":-1,
          "soul":""
        },{
          "refId":"expensive_pants_02",
          "count":1,
          "charge":-1,
          "enchantmentCharge":-1,
          "soul":""
        },{
          "refId":"torch_infinite_time",
          "count":1,
          "charge":-1,
          "enchantmentCharge":-1,
          "soul":""
        },{
          "refId":"ebony mace",
          "count":1,
          "charge":-1,
          "enchantmentCharge":-1,
          "soul":""
        }]
    },
    "259453-0":{
      "refId":"fendryn drelvi",
      "location":{
        "posX":43869.9609375,
        "posZ":576.99993896484,
        "posY":-87539.4765625,
        "rotX":0,
        "rotY":0,
        "rotZ":-0.099999666213989
      },
      "stats":{
        "healthCurrent":59,
        "magickaCurrent":86,
        "healthModified":59,
        "fatigueBase":175,
        "fatigueModified":175,
        "healthBase":59,
        "magickaModified":86,
        "magickaBase":86,
        "fatigueCurrent":175
      },
      "equipment":{
        "0":{
          "refId":"gondolier_helm",
          "count":1,
          "charge":-1,
          "enchantmentCharge":-1
        },
        "16":{
          "refId":"iron dagger",
          "count":1,
          "charge":-1,
          "enchantmentCharge":-1
        },
        "8":{
          "refId":"common_shirt_gondolier",
          "count":1,
          "charge":-1,
          "enchantmentCharge":-1
        },
        "9":{
          "refId":"common_pants_03_c",
          "count":1,
          "charge":-1,
          "enchantmentCharge":-1
        }
      },
      "inventory":[{
          "refId":"gondolier_helm",
          "count":1,
          "charge":-1,
          "enchantmentCharge":-1,
          "soul":""
        },{
          "refId":"common_shirt_gondolier",
          "count":1,
          "charge":-1,
          "enchantmentCharge":-1,
          "soul":""
        },{
          "refId":"common_pants_03_c",
          "count":1,
          "charge":-1,
          "enchantmentCharge":-1,
          "soul":""
        },{
          "refId":"iron dagger",
          "count":1,
          "charge":-1,
          "enchantmentCharge":-1,
          "soul":""
        }]
    }
  },
  "loadState":{
    "hasFullContainerData":true,
    "hasFullActorList":true
  }
}