{
  "packets":{
    "actorList":["369378-0","369380-0","369379-0"],
    "ai":[],
    "cellChangeFrom":[],
    "cellChangeTo":[],
    "container":["369404-0","369405-0","369420-0","369525-0","468554-0","369378-0","369379-0","369380-0"],
    "death":["369378-0","369379-0","369380-0"],
    "delete":["369428-0","369393-0"],
    "doorState":[],
    "equipment":["369378-0","369380-0","369379-0"],
    "lock":[],
    "place":[],
    "position":["369378-0","369379-0","369380-0"],
    "scale":[],
    "spawn":[],
    "state":[],
    "statsDynamic":["369378-0","369379-0","369380-0"],
    "trap":[],
    "spellsActive":[],
    "miscellaneous":[],
    "clientScriptLocal":[]
  },
  "entry":{
    "creationTime":1649820710,
    "description":"Arkngthand, Hall of Centrifuge"
  },
  "lastVisit":{
    "Arnas":1649823069,
    "Katherine":1649823089,
    "Matrim":1649823088
  },
  "recordLinks":[],
  "objectData":{
    "468554-0":{
      "refId":"crate_02_torch",
      "inventory":[{
          "refId":"torch",
          "count":5,
          "charge":-1,
          "enchantmentCharge":-1,
          "soul":""
        }]
    },
    "369393-0":{
      "refId":"dwarven spear"
    },
    "369420-0":{
      "refId":"crate_01",
      "inventory":[]
    },
    "369428-0":{
      "refId":"potion_cyro_whiskey_01"
    },
    "369525-0":{
      "refId":"dwrv_cabinet10",
      "inventory":[{
          "refId":"misc_dwrv_gear00",
          "count":1,
          "charge":-1,
          "enchantmentCharge":-1,
          "soul":""
        }]
    },
    "369404-0":{
      "refId":"dwrv_barrel00",
      "inventory":[{
          "refId":"ingred_scrap_metal_01",
          "count":1,
          "charge":-1,
          "enchantmentCharge":-1,
          "soul":""
        }]
    },
    "369405-0":{
      "refId":"dwrv_barrel10",
      "inventory":[{
          "refId":"ingred_scrap_metal_01",
          "count":1,
          "charge":-1,
          "enchantmentCharge":-1,
          "soul":""
        }]
    },
    "369378-0":{
      "refId":"surus velvus",
      "location":{
        "posX":1124.7403564453,
        "posZ":577,
        "posY":3191.6416015625,
        "rotX":0,
        "rotY":0,
        "rotZ":0.67405104637146
      },
      "stats":{
        "healthCurrent":0,
        "magickaCurrent":84,
        "healthModified":53,
        "fatigueBase":152,
        "fatigueModified":152,
        "healthBase":53,
        "magickaModified":84,
        "magickaBase":84,
        "fatigueCurrent":144.28199768066
      },
      "equipment":[],
      "inventory":[],
      "killer":{
        "playerName":"Arnas"
      },
      "deathState":42
    },
    "369380-0":{
      "refId":"cristus lync",
      "location":{
        "posX":854.64489746094,
        "posZ":-383,
        "posY":2015.0034179688,
        "rotX":-0.024802755564451,
        "rotY":0,
        "rotZ":1.6441991329193
      },
      "stats":{
        "healthCurrent":0,
        "magickaCurrent":64,
        "healthModified":63,
        "fatigueBase":182,
        "fatigueModified":182,
        "healthBase":63,
        "magickaModified":64,
        "magickaBase":64,
        "fatigueCurrent":182
      },
      "equipment":{
        "7":{
          "refId":"common_shoes_03",
          "count":1,
          "charge":-1,
          "enchantmentCharge":-1
        },
        "8":{
          "refId":"common_shirt_05",
          "count":1,
          "charge":-1,
          "enchantmentCharge":-1
        },
        "9":{
          "refId":"common_pants_03",
          "count":1,
          "charge":-1,
          "enchantmentCharge":-1
        },
        "15":{
          "refId":"common_belt_03",
          "count":1,
          "charge":-1,
          "enchantmentCharge":-1
        },
        "16":{
          "refId":"steel dagger",
          "count":1,
          "charge":-1,
          "enchantmentCharge":-1
        }
      },
      "inventory":[{
          "refId":"common_belt_03",
          "count":1,
          "charge":-1,
          "enchantmentCharge":-1,
          "soul":""
        },{
          "refId":"common_shirt_05",
          "count":1,
          "charge":-1,
          "enchantmentCharge":-1,
          "soul":""
        },{
          "refId":"common_shoes_03",
          "count":1,
          "charge":-1,
          "enchantmentCharge":-1,
          "soul":""
        },{
          "refId":"common_pants_03",
          "count":1,
          "charge":-1,
          "enchantmentCharge":-1,
          "soul":""
        },{
          "refId":"steel dagger",
          "count":1,
          "charge":448,
          "enchantmentCharge":-1,
          "soul":""
        }],
      "killer":{
        "playerName":"Matrim"
      },
      "deathState":40
    },
    "369379-0":{
      "refId":"frink ruuz",
      "location":{
        "posX":1094.9528808594,
        "posZ":577,
        "posY":3433.0073242188,
        "rotX":-0.025197681039572,
        "rotY":0,
        "rotZ":-2.7426431179047
      },
      "stats":{
        "healthCurrent":0,
        "magickaCurrent":64,
        "healthModified":63,
        "fatigueBase":182,
        "fatigueModified":182,
        "healthBase":63,
        "magickaModified":64,
        "magickaBase":64,
        "fatigueCurrent":182
      },
      "equipment":[],
      "inventory":[],
      "killer":{
        "playerName":"Katherine"
      },
      "deathState":41
    }
  },
  "loadState":{
    "hasFullContainerData":true,
    "hasFullActorList":true
  }
}