{
  "packets":{
    "actorList":["492462-0","492469-0","492471-0","492461-0","492468-0","492463-0","492466-0","492467-0","492470-0","492465-0","492464-0"],
    "ai":[],
    "cellChangeFrom":[],
    "cellChangeTo":[],
    "container":["492472-0","492985-0","493009-0","493026-0","493091-0","493160-0","493161-0","493162-0","493163-0","493164-0","493166-0","493167-0","493203-0","492461-0","492462-0","492463-0","492464-0","492465-0","492466-0","492467-0","492468-0","492469-0","492470-0","492471-0"],
    "death":[],
    "delete":[],
    "doorState":["493133-0"],
    "equipment":["492462-0","492469-0","492471-0","492461-0","492468-0","492463-0","492466-0","492467-0","492470-0","492465-0","492464-0"],
    "lock":["493133-0","492472-0"],
    "place":[],
    "position":["492461-0","492462-0","492463-0","492464-0","492465-0","492466-0","492467-0","492468-0","492469-0","492470-0","492471-0"],
    "scale":[],
    "spawn":[],
    "state":["493211-0","493212-0","492466-0","492467-0","492468-0","492469-0","492470-0","492471-0"],
    "statsDynamic":["492461-0","492462-0","492463-0","492464-0","492465-0","492466-0","492467-0","492468-0","492469-0","492470-0","492471-0"],
    "trap":[],
    "spellsActive":[],
    "miscellaneous":["492464-0"],
    "clientScriptLocal":[]
  },
  "entry":{
    "creationTime":1651024569,
    "description":"Ebon Tower, Legion: Dungeons"
  },
  "lastVisit":{
    "Matrim":1651024992
  },
  "recordLinks":[],
  "objectData":{
    "493009-0":{
      "refId":"barrel_01",
      "inventory":[]
    },
    "493091-0":{
      "refId":"chest_small_02_gold_10",
      "inventory":[{
          "refId":"gold_001",
          "count":10,
          "charge":-1,
          "enchantmentCharge":-1,
          "soul":""
        }]
    },
    "493161-0":{
      "refId":"com_sack_01",
      "inventory":[]
    },
    "492461-0":{
      "refId":"tr_imp_guard",
      "location":{
        "posX":940.50140380859,
        "posZ":1337.1999511719,
        "posY":8640.775390625,
        "rotX":0.011752754449844,
        "rotY":0,
        "rotZ":-1.628166437149
      },
      "stats":{
        "healthCurrent":244,
        "magickaCurrent":132,
        "healthModified":244,
        "fatigueBase":317,
        "fatigueModified":317,
        "healthBase":244,
        "magickaModified":132,
        "magickaBase":132,
        "fatigueCurrent":317
      },
      "equipment":{
        "0":{
          "refId":"imperial helmet armor",
          "count":1,
          "charge":-1,
          "enchantmentCharge":-1
        },
        "1":{
          "refId":"imperial cuirass_armor",
          "count":1,
          "charge":-1,
          "enchantmentCharge":-1
        },
        "2":{
          "refId":"imperial_greaves",
          "count":1,
          "charge":-1,
          "enchantmentCharge":-1
        },
        "3":{
          "refId":"imperial left pauldron",
          "count":1,
          "charge":-1,
          "enchantmentCharge":-1
        },
        "4":{
          "refId":"imperial right pauldron",
          "count":1,
          "charge":-1,
          "enchantmentCharge":-1
        },
        "5":{
          "refId":"imperial left gauntlet",
          "count":1,
          "charge":-1,
          "enchantmentCharge":-1
        },
        "6":{
          "refId":"imperial right gauntlet",
          "count":1,
          "charge":-1,
          "enchantmentCharge":-1
        },
        "7":{
          "refId":"imperial boots",
          "count":1,
          "charge":-1,
          "enchantmentCharge":-1
        },
        "15":{
          "refId":"imperial belt",
          "count":1,
          "charge":-1,
          "enchantmentCharge":-1
        },
        "16":{
          "refId":"imperial shortsword",
          "count":1,
          "charge":-1,
          "enchantmentCharge":-1
        },
        "17":{
          "refId":"imperial shield",
          "count":1,
          "charge":-1,
          "enchantmentCharge":-1
        }
      },
      "inventory":[{
          "refId":"p_restore_health_b",
          "count":3,
          "charge":-1,
          "enchantmentCharge":-1,
          "soul":""
        },{
          "refId":"imperial right gauntlet",
          "count":1,
          "charge":-1,
          "enchantmentCharge":-1,
          "soul":""
        },{
          "refId":"imperial left gauntlet",
          "count":1,
          "charge":-1,
          "enchantmentCharge":-1,
          "soul":""
        },{
          "refId":"imperial boots",
          "count":1,
          "charge":-1,
          "enchantmentCharge":-1,
          "soul":""
        },{
          "refId":"imperial_greaves",
          "count":1,
          "charge":-1,
          "enchantmentCharge":-1,
          "soul":""
        },{
          "refId":"imperial right pauldron",
          "count":1,
          "charge":-1,
          "enchantmentCharge":-1,
          "soul":""
        },{
          "refId":"imperial left pauldron",
          "count":1,
          "charge":-1,
          "enchantmentCharge":-1,
          "soul":""
        },{
          "refId":"imperial cuirass_armor",
          "count":1,
          "charge":-1,
          "enchantmentCharge":-1,
          "soul":""
        },{
          "refId":"imperial shield",
          "count":1,
          "charge":-1,
          "enchantmentCharge":-1,
          "soul":""
        },{
          "refId":"imperial helmet armor",
          "count":1,
          "charge":-1,
          "enchantmentCharge":-1,
          "soul":""
        },{
          "refId":"imperial belt",
          "count":1,
          "charge":-1,
          "enchantmentCharge":-1,
          "soul":""
        },{
          "refId":"torch_infinite_time",
          "count":1,
          "charge":-1,
          "enchantmentCharge":-1,
          "soul":""
        },{
          "refId":"imperial shortsword",
          "count":1,
          "charge":-1,
          "enchantmentCharge":-1,
          "soul":""
        }]
    },
    "493026-0":{
      "refId":"com_chest_02_imp_arms",
      "inventory":[{
          "refId":"imperial shield",
          "count":1,
          "charge":-1,
          "enchantmentCharge":-1,
          "soul":""
        },{
          "refId":"imperial broadsword",
          "count":1,
          "charge":-1,
          "enchantmentCharge":-1,
          "soul":""
        }]
    },
    "492468-0":{
      "refId":"tr_m3_olres_prison",
      "location":{
        "posX":563.65466308594,
        "posZ":1223,
        "posY":8460.3544921875,
        "rotX":0,
        "rotY":0,
        "rotZ":3.0168135166168
      },
      "stats":{
        "healthCurrent":51,
        "magickaCurrent":84,
        "fatigueModified":166,
        "fatigueBase":166,
        "healthBase":51,
        "healthModified":51,
        "magickaModified":84,
        "magickaBase":84,
        "fatigueCurrent":166
      },
      "equipment":[null,null,null,null,null,null,null,{
          "refId":"common_shirt_04_a",
          "count":1,
          "charge":-1,
          "enchantmentCharge":-1
        },{
          "refId":"common_pants_04",
          "count":1,
          "charge":-1,
          "enchantmentCharge":-1
        }],
      "inventory":[{
          "refId":"common_shirt_04_a",
          "count":1,
          "charge":-1,
          "enchantmentCharge":-1,
          "soul":""
        },{
          "refId":"common_pants_04",
          "count":1,
          "charge":-1,
          "enchantmentCharge":-1,
          "soul":""
        }],
      "state":false
    },
    "493162-0":{
      "refId":"com_sack_01",
      "inventory":[]
    },
    "492467-0":{
      "refId":"tr_m3_qyntos_prison",
      "location":{
        "posX":553.81988525391,
        "posZ":1221,
        "posY":8753.1318359375,
        "rotX":0,
        "rotY":0,
        "rotZ":0
      },
      "stats":{
        "healthCurrent":86,
        "magickaCurrent":102,
        "fatigueModified":189,
        "fatigueBase":189,
        "healthBase":86,
        "healthModified":86,
        "magickaModified":102,
        "magickaBase":102,
        "fatigueCurrent":189
      },
      "equipment":[null,null,null,null,null,null,null,{
          "refId":"common_shirt_04_c",
          "count":1,
          "charge":-1,
          "enchantmentCharge":-1
        },{
          "refId":"common_pants_04",
          "count":1,
          "charge":-1,
          "enchantmentCharge":-1
        }],
      "inventory":[{
          "refId":"common_shirt_04_c",
          "count":1,
          "charge":-1,
          "enchantmentCharge":-1,
          "soul":""
        },{
          "refId":"common_pants_04",
          "count":1,
          "charge":-1,
          "enchantmentCharge":-1,
          "soul":""
        }],
      "state":false
    },
    "492462-0":{
      "refId":"tr_imp_guard",
      "location":{
        "posX":-45.907615661621,
        "posZ":833.00872802734,
        "posY":9764.3603515625,
        "rotX":-0.0074008191004395,
        "rotY":0,
        "rotZ":-1.5030467510223
      },
      "stats":{
        "healthCurrent":244,
        "magickaCurrent":132,
        "healthModified":244,
        "fatigueBase":317,
        "fatigueModified":317,
        "healthBase":244,
        "magickaModified":132,
        "magickaBase":132,
        "fatigueCurrent":317
      },
      "equipment":{
        "0":{
          "refId":"imperial helmet armor",
          "count":1,
          "charge":-1,
          "enchantmentCharge":-1
        },
        "1":{
          "refId":"imperial cuirass_armor",
          "count":1,
          "charge":-1,
          "enchantmentCharge":-1
        },
        "2":{
          "refId":"imperial_greaves",
          "count":1,
          "charge":-1,
          "enchantmentCharge":-1
        },
        "3":{
          "refId":"imperial left pauldron",
          "count":1,
          "charge":-1,
          "enchantmentCharge":-1
        },
        "4":{
          "refId":"imperial right pauldron",
          "count":1,
          "charge":-1,
          "enchantmentCharge":-1
        },
        "5":{
          "refId":"imperial left gauntlet",
          "count":1,
          "charge":-1,
          "enchantmentCharge":-1
        },
        "6":{
          "refId":"imperial right gauntlet",
          "count":1,
          "charge":-1,
          "enchantmentCharge":-1
        },
        "7":{
          "refId":"imperial boots",
          "count":1,
          "charge":-1,
          "enchantmentCharge":-1
        },
        "10":{
          "refId":"imperial skirt_clothing",
          "count":1,
          "charge":-1,
          "enchantmentCharge":-1
        },
        "15":{
          "refId":"imperial belt",
          "count":1,
          "charge":-1,
          "enchantmentCharge":-1
        },
        "16":{
          "refId":"imperial netch blade",
          "count":1,
          "charge":-1,
          "enchantmentCharge":-1
        },
        "17":{
          "refId":"imperial shield",
          "count":1,
          "charge":-1,
          "enchantmentCharge":-1
        }
      },
      "inventory":[{
          "refId":"p_restore_health_b",
          "count":3,
          "charge":-1,
          "enchantmentCharge":-1,
          "soul":""
        },{
          "refId":"imperial right gauntlet",
          "count":1,
          "charge":-1,
          "enchantmentCharge":-1,
          "soul":""
        },{
          "refId":"imperial left gauntlet",
          "count":1,
          "charge":-1,
          "enchantmentCharge":-1,
          "soul":""
        },{
          "refId":"imperial boots",
          "count":1,
          "charge":-1,
          "enchantmentCharge":-1,
          "soul":""
        },{
          "refId":"imperial_greaves",
          "count":1,
          "charge":-1,
          "enchantmentCharge":-1,
          "soul":""
        },{
          "refId":"imperial right pauldron",
          "count":1,
          "charge":-1,
          "enchantmentCharge":-1,
          "soul":""
        },{
          "refId":"imperial left pauldron",
          "count":1,
          "charge":-1,
          "enchantmentCharge":-1,
          "soul":""
        },{
          "refId":"imperial cuirass_armor",
          "count":1,
          "charge":-1,
          "enchantmentCharge":-1,
          "soul":""
        },{
          "refId":"imperial shield",
          "count":1,
          "charge":-1,
          "enchantmentCharge":-1,
          "soul":""
        },{
          "refId":"imperial helmet armor",
          "count":1,
          "charge":-1,
          "enchantmentCharge":-1,
          "soul":""
        },{
          "refId":"imperial belt",
          "count":1,
          "charge":-1,
          "enchantmentCharge":-1,
          "soul":""
        },{
          "refId":"imperial skirt_clothing",
          "count":1,
          "charge":-1,
          "enchantmentCharge":-1,
          "soul":""
        },{
          "refId":"torch_infinite_time",
          "count":1,
          "charge":-1,
          "enchantmentCharge":-1,
          "soul":""
        },{
          "refId":"imperial netch blade",
          "count":1,
          "charge":-1,
          "enchantmentCharge":-1,
          "soul":""
        }]
    },
    "493167-0":{
      "refId":"barrel_01_random_pos",
      "inventory":[{
          "refId":"misc_com_wood_spoon_02",
          "count":1,
          "charge":-1,
          "enchantmentCharge":-1,
          "soul":""
        },{
          "refId":"misc_com_bottle_15",
          "count":1,
          "charge":-1,
          "enchantmentCharge":-1,
          "soul":""
        },{
          "refId":"misc_com_plate_01",
          "count":2,
          "charge":-1,
          "enchantmentCharge":-1,
          "soul":""
        },{
          "refId":"misc_soulgem_petty",
          "count":1,
          "charge":-1,
          "enchantmentCharge":-1,
          "soul":""
        },{
          "refId":"gold_001",
          "count":3,
          "charge":-1,
          "enchantmentCharge":-1,
          "soul":""
        }]
    },
    "493164-0":{
      "refId":"com_sack_01",
      "inventory":[]
    },
    "493212-0":{
      "refId":"tr_m3_oe_tg_dungeonblock01",
      "state":false
    },
    "493160-0":{
      "refId":"com_sack_03",
      "inventory":[]
    },
    "493203-0":{
      "refId":"tr_m3_et_prisonsblo",
      "inventory":[{
          "refId":"tr_m3_oe_sc_etprisonpoem01tr",
          "count":1,
          "charge":-1,
          "enchantmentCharge":-1,
          "soul":""
        }]
    },
    "492469-0":{
      "refId":"tr_m3_vols_prison",
      "location":{
        "posX":547.91168212891,
        "posZ":1217,
        "posY":8010.5053710938,
        "rotX":0,
        "rotY":0,
        "rotZ":0
      },
      "stats":{
        "healthCurrent":79,
        "magickaCurrent":120,
        "fatigueModified":186,
        "fatigueBase":186,
        "healthBase":79,
        "healthModified":79,
        "magickaModified":120,
        "magickaBase":120,
        "fatigueCurrent":186
      },
      "equipment":[null,null,null,null,null,null,null,{
          "refId":"common_shirt_02_hh",
          "count":1,
          "charge":-1,
          "enchantmentCharge":-1
        },{
          "refId":"common_pants_01",
          "count":1,
          "charge":-1,
          "enchantmentCharge":-1
        }],
      "inventory":[{
          "refId":"common_shirt_02_hh",
          "count":1,
          "charge":-1,
          "enchantmentCharge":-1,
          "soul":""
        },{
          "refId":"common_pants_01",
          "count":1,
          "charge":-1,
          "enchantmentCharge":-1,
          "soul":""
        }],
      "state":false
    },
    "492985-0":{
      "refId":"t_glb_var_skeleton04",
      "inventory":[{
          "refId":"ingred_bonemeal_01",
          "count":1,
          "charge":-1,
          "enchantmentCharge":-1,
          "soul":""
        }]
    },
    "492466-0":{
      "refId":"tr_m3_stabby-jak_prison",
      "location":{
        "posX":298.56478881836,
        "posZ":1223,
        "posY":8431.4052734375,
        "rotX":0,
        "rotY":0,
        "rotZ":3.1000003814697
      },
      "stats":{
        "healthCurrent":88,
        "magickaCurrent":126,
        "fatigueModified":203,
        "fatigueBase":203,
        "healthBase":88,
        "healthModified":88,
        "magickaModified":126,
        "magickaBase":126,
        "fatigueCurrent":203
      },
      "equipment":[null,null,null,null,null,null,null,null,{
          "refId":"common_pants_03_b",
          "count":1,
          "charge":-1,
          "enchantmentCharge":-1
        }],
      "inventory":[{
          "refId":"common_pants_03_b",
          "count":1,
          "charge":-1,
          "enchantmentCharge":-1,
          "soul":""
        }],
      "state":false
    },
    "492471-0":{
      "refId":"tr_m3_medemilian rane2",
      "location":{
        "posX":63.922992706299,
        "posZ":1217,
        "posY":8071.1831054688,
        "rotX":0,
        "rotY":0,
        "rotZ":0
      },
      "stats":{
        "healthCurrent":61,
        "magickaCurrent":132,
        "fatigueModified":173,
        "fatigueBase":173,
        "healthBase":61,
        "healthModified":61,
        "magickaModified":132,
        "magickaBase":132,
        "fatigueCurrent":173
      },
      "equipment":[null,null,null,null,null,null,null,null,{
          "refId":"expensive_pants_03",
          "count":1,
          "charge":-1,
          "enchantmentCharge":-1
        }],
      "inventory":[{
          "refId":"expensive_pants_03",
          "count":1,
          "charge":-1,
          "enchantmentCharge":-1,
          "soul":""
        }],
      "state":false
    },
    "493133-0":{
      "refId":"tr_m3_oe_legionprisondoor01",
      "doorState":2,
      "lockLevel":0
    },
    "492463-0":{
      "refId":"tr_m3_lanian grivepien",
      "location":{
        "posX":-219.58145141602,
        "posZ":833.00872802734,
        "posY":9110.6005859375,
        "rotX":0,
        "rotY":0,
        "rotZ":2.8000011444092
      },
      "stats":{
        "healthCurrent":67,
        "magickaCurrent":170,
        "healthModified":67,
        "fatigueBase":193,
        "fatigueModified":193,
        "healthBase":67,
        "magickaModified":170,
        "magickaBase":170,
        "fatigueCurrent":193
      },
      "equipment":{
        "0":{
          "refId":"t_de_netch_helm_02",
          "count":1,
          "charge":-1,
          "enchantmentCharge":-1
        },
        "5":{
          "refId":"netch_leather_gauntlet_left",
          "count":1,
          "charge":-1,
          "enchantmentCharge":-1
        },
        "6":{
          "refId":"netch_leather_gauntlet_right",
          "count":1,
          "charge":-1,
          "enchantmentCharge":-1
        },
        "7":{
          "refId":"t_imp_studdedleather_boots_01",
          "count":1,
          "charge":-1,
          "enchantmentCharge":-1
        },
        "11":{
          "refId":"common_robe_01",
          "count":1,
          "charge":-1,
          "enchantmentCharge":-1
        },
        "16":{
          "refId":"t_com_iron_tanto_04",
          "count":1,
          "charge":-1,
          "enchantmentCharge":-1
        }
      },
      "inventory":[{
          "refId":"netch_leather_gauntlet_right",
          "count":1,
          "charge":-1,
          "enchantmentCharge":-1,
          "soul":""
        },{
          "refId":"netch_leather_gauntlet_left",
          "count":1,
          "charge":-1,
          "enchantmentCharge":-1,
          "soul":""
        },{
          "refId":"t_imp_studdedleather_boots_01",
          "count":1,
          "charge":-1,
          "enchantmentCharge":-1,
          "soul":""
        },{
          "refId":"t_de_netch_helm_02",
          "count":1,
          "charge":-1,
          "enchantmentCharge":-1,
          "soul":""
        },{
          "refId":"common_robe_01",
          "count":1,
          "charge":-1,
          "enchantmentCharge":-1,
          "soul":""
        },{
          "refId":"tr_m3_ebontower3prisonkey",
          "count":1,
          "charge":-1,
          "enchantmentCharge":-1,
          "soul":""
        },{
          "refId":"tr_m3_ebontower2prisonkey",
          "count":1,
          "charge":-1,
          "enchantmentCharge":-1,
          "soul":""
        },{
          "refId":"tr_m3_ebontower1prisonkey",
          "count":1,
          "charge":-1,
          "enchantmentCharge":-1,
          "soul":""
        },{
          "refId":"t_com_iron_tanto_04",
          "count":1,
          "charge":-1,
          "enchantmentCharge":-1,
          "soul":""
        }]
    },
    "492464-0":{
      "refId":"tr_m3_gaulus",
      "location":{
        "posX":1550.2805175781,
        "posZ":1585,
        "posY":8285.4248046875,
        "rotX":0,
        "rotY":0,
        "rotZ":-2.5360877513885
      },
      "stats":{
        "healthCurrent":109.90893554688,
        "magickaCurrent":100,
        "healthModified":127,
        "fatigueBase":227,
        "fatigueModified":227,
        "healthBase":127,
        "magickaModified":100,
        "magickaBase":100,
        "fatigueCurrent":227
      },
      "equipment":{
        "1":{
          "refId":"imperial_studded_cuirass",
          "count":1,
          "charge":-1,
          "enchantmentCharge":-1
        },
        "2":{
          "refId":"t_imp_studdedleather_greaves_01",
          "count":1,
          "charge":-1,
          "enchantmentCharge":-1
        },
        "3":{
          "refId":"t_imp_studdedleather_pauldrl_01",
          "count":1,
          "charge":-1,
          "enchantmentCharge":-1
        },
        "4":{
          "refId":"t_imp_studdedleather_pauldrr_01",
          "count":1,
          "charge":-1,
          "enchantmentCharge":-1
        },
        "7":{
          "refId":"t_imp_studdedleather_boots_01",
          "count":1,
          "charge":-1,
          "enchantmentCharge":-1
        },
        "10":{
          "refId":"imperial skirt_clothing",
          "count":1,
          "charge":-1,
          "enchantmentCharge":-1
        },
        "16":{
          "refId":"steel mace",
          "count":1,
          "charge":-1,
          "enchantmentCharge":-1
        }
      },
      "inventory":[{
          "refId":"t_imp_studdedleather_boots_01",
          "count":1,
          "charge":-1,
          "enchantmentCharge":-1,
          "soul":""
        },{
          "refId":"t_imp_studdedleather_greaves_01",
          "count":1,
          "charge":-1,
          "enchantmentCharge":-1,
          "soul":""
        },{
          "refId":"t_imp_studdedleather_pauldrr_01",
          "count":1,
          "charge":-1,
          "enchantmentCharge":-1,
          "soul":""
        },{
          "refId":"t_imp_studdedleather_pauldrl_01",
          "count":1,
          "charge":-1,
          "enchantmentCharge":-1,
          "soul":""
        },{
          "refId":"imperial_studded_cuirass",
          "count":1,
          "charge":-1,
          "enchantmentCharge":-1,
          "soul":""
        },{
          "refId":"imperial skirt_clothing",
          "count":1,
          "charge":-1,
          "enchantmentCharge":-1,
          "soul":""
        },{
          "refId":"tr_m3_ebontower3prisonkey",
          "count":1,
          "charge":-1,
          "enchantmentCharge":-1,
          "soul":""
        },{
          "refId":"tr_m3_ebontower2prisonkey",
          "count":1,
          "charge":-1,
          "enchantmentCharge":-1,
          "soul":""
        },{
          "refId":"tr_m3_ebontower1prisonkey",
          "count":1,
          "charge":-1,
          "enchantmentCharge":-1,
          "soul":""
        },{
          "refId":"steel mace",
          "count":1,
          "charge":-1,
          "enchantmentCharge":-1,
          "soul":""
        }],
      "lastGoldRestockDay":8,
      "lastGoldRestockHour":11.378451347351,
      "goldPool":0
    },
    "492465-0":{
      "refId":"tr_imp_guard_s",
      "location":{
        "posX":-506.03283691406,
        "posZ":833.00872802734,
        "posY":9781.6611328125,
        "rotX":0,
        "rotY":0,
        "rotZ":1.700000166893
      },
      "stats":{
        "healthCurrent":244,
        "magickaCurrent":132,
        "healthModified":244,
        "fatigueBase":317,
        "fatigueModified":317,
        "healthBase":244,
        "magickaModified":132,
        "magickaBase":132,
        "fatigueCurrent":317
      },
      "equipment":{
        "0":{
          "refId":"imperial helmet armor",
          "count":1,
          "charge":-1,
          "enchantmentCharge":-1
        },
        "1":{
          "refId":"imperial cuirass_armor",
          "count":1,
          "charge":-1,
          "enchantmentCharge":-1
        },
        "2":{
          "refId":"imperial_greaves",
          "count":1,
          "charge":-1,
          "enchantmentCharge":-1
        },
        "3":{
          "refId":"t_imp_studdedleather_pauldrl_01",
          "count":1,
          "charge":-1,
          "enchantmentCharge":-1
        },
        "4":{
          "refId":"imperial right pauldron",
          "count":1,
          "charge":-1,
          "enchantmentCharge":-1
        },
        "5":{
          "refId":"imperial left gauntlet",
          "count":1,
          "charge":-1,
          "enchantmentCharge":-1
        },
        "6":{
          "refId":"imperial right gauntlet",
          "count":1,
          "charge":-1,
          "enchantmentCharge":-1
        },
        "7":{
          "refId":"imperial boots",
          "count":1,
          "charge":-1,
          "enchantmentCharge":-1
        },
        "15":{
          "refId":"imperial belt",
          "count":1,
          "charge":-1,
          "enchantmentCharge":-1
        },
        "16":{
          "refId":"steel axe",
          "count":1,
          "charge":-1,
          "enchantmentCharge":-1
        },
        "17":{
          "refId":"imperial shield",
          "count":1,
          "charge":-1,
          "enchantmentCharge":-1
        }
      },
      "inventory":[{
          "refId":"p_restore_health_b",
          "count":3,
          "charge":-1,
          "enchantmentCharge":-1,
          "soul":""
        },{
          "refId":"imperial right gauntlet",
          "count":1,
          "charge":-1,
          "enchantmentCharge":-1,
          "soul":""
        },{
          "refId":"imperial left gauntlet",
          "count":1,
          "charge":-1,
          "enchantmentCharge":-1,
          "soul":""
        },{
          "refId":"imperial boots",
          "count":1,
          "charge":-1,
          "enchantmentCharge":-1,
          "soul":""
        },{
          "refId":"imperial_greaves",
          "count":1,
          "charge":-1,
          "enchantmentCharge":-1,
          "soul":""
        },{
          "refId":"imperial cuirass_armor",
          "count":1,
          "charge":-1,
          "enchantmentCharge":-1,
          "soul":""
        },{
          "refId":"imperial shield",
          "count":1,
          "charge":-1,
          "enchantmentCharge":-1,
          "soul":""
        },{
          "refId":"imperial helmet armor",
          "count":1,
          "charge":-1,
          "enchantmentCharge":-1,
          "soul":""
        },{
          "refId":"t_imp_studdedleather_pauldrl_01",
          "count":1,
          "charge":-1,
          "enchantmentCharge":-1,
          "soul":""
        },{
          "refId":"imperial right pauldron",
          "count":1,
          "charge":-1,
          "enchantmentCharge":-1,
          "soul":""
        },{
          "refId":"imperial belt",
          "count":1,
          "charge":-1,
          "enchantmentCharge":-1,
          "soul":""
        },{
          "refId":"torch_infinite_time",
          "count":1,
          "charge":-1,
          "enchantmentCharge":-1,
          "soul":""
        },{
          "refId":"steel axe",
          "count":1,
          "charge":-1,
          "enchantmentCharge":-1,
          "soul":""
        }]
    },
    "492470-0":{
      "refId":"tr_m3_miriel_prison",
      "location":{
        "posX":-209.07096862793,
        "posZ":833.00872802734,
        "posY":9975.369140625,
        "rotX":0,
        "rotY":0,
        "rotZ":3.08318567276
      },
      "stats":{
        "healthCurrent":50,
        "magickaCurrent":92,
        "fatigueModified":173,
        "fatigueBase":173,
        "healthBase":50,
        "healthModified":50,
        "magickaModified":92,
        "magickaBase":92,
        "fatigueCurrent":173
      },
      "equipment":[null,null,null,null,null,null,null,{
          "refId":"t_com_cm_shirt_04",
          "count":1,
          "charge":-1,
          "enchantmentCharge":-1
        },{
          "refId":"t_com_cm_pants_03",
          "count":1,
          "charge":-1,
          "enchantmentCharge":-1
        }],
      "inventory":[{
          "refId":"t_com_cm_shirt_04",
          "count":1,
          "charge":-1,
          "enchantmentCharge":-1,
          "soul":""
        },{
          "refId":"t_com_cm_pants_03",
          "count":1,
          "charge":-1,
          "enchantmentCharge":-1,
          "soul":""
        }],
      "state":false
    },
    "492472-0":{
      "refId":"stolen_goods",
      "inventory":[],
      "lockLevel":0
    },
    "493166-0":{
      "refId":"barrel_01_empty",
      "inventory":[]
    },
    "493211-0":{
      "refId":"tr_m3_oe_tg_dungeonblock02",
      "state":false
    },
    "493163-0":{
      "refId":"com_sack_01",
      "inventory":[]
    }
  },
  "loadState":{
    "hasFullContainerData":true,
    "hasFullActorList":true
  }
}