{
  "packets":{
    "actorList":["504306-0","504300-0","504299-0","504305-0","504301-0","504304-0","504302-0","504303-0"],
    "ai":[],
    "cellChangeFrom":[],
    "cellChangeTo":[],
    "container":["504382-0","504383-0","504411-0","504412-0","504413-0","504592-0","504593-0","504674-0","504675-0","504684-0","504685-0","504706-0","504707-0","504708-0","504939-0","504946-0","504947-0","504948-0","504952-0","504965-0","505004-0","505122-0","505142-0","505155-0","505157-0","505158-0","505159-0","504299-0","504300-0","504301-0","504302-0","504303-0","504304-0","504305-0","504306-0"],
    "death":[],
    "delete":[],
    "doorState":[],
    "equipment":["504306-0","504300-0","504299-0","504305-0","504301-0","504304-0","504302-0","504303-0"],
    "lock":[],
    "place":["0-329"],
    "position":["504299-0","504300-0","504301-0","504302-0","504303-0","504304-0","504305-0","504306-0"],
    "scale":[],
    "spawn":[],
    "state":["505298-0"],
    "statsDynamic":["504299-0","504300-0","504301-0","504302-0","504303-0","504304-0","504305-0","504306-0"],
    "trap":[],
    "spellsActive":[],
    "miscellaneous":[],
    "clientScriptLocal":[]
  },
  "entry":{
    "creationTime":1651022540,
    "description":"Old Ebonheart, Guild of Fighters"
  },
  "lastVisit":{
    "Arnas":1651022554
  },
  "recordLinks":[],
  "objectData":{
    "505157-0":{
      "refId":"com_chest_02_l_weap_01",
      "inventory":[{
          "refId":"firebite dagger",
          "count":1,
          "charge":-1,
          "enchantmentCharge":-1,
          "soul":""
        }]
    },
    "504383-0":{
      "refId":"com_sack_01",
      "inventory":[]
    },
    "504946-0":{
      "refId":"chest_small_01_gold_50",
      "inventory":[{
          "refId":"gold_001",
          "count":50,
          "charge":-1,
          "enchantmentCharge":-1,
          "soul":""
        }]
    },
    "504306-0":{
      "refId":"tr_m3_fothresa_aravel",
      "location":{
        "posX":4322.9702148438,
        "posZ":11970.006835938,
        "posY":257.53131103516,
        "rotX":0,
        "rotY":0,
        "rotZ":0.70000004768372
      },
      "stats":{
        "healthCurrent":126,
        "magickaCurrent":102,
        "healthModified":126,
        "fatigueBase":220,
        "fatigueModified":220,
        "healthBase":126,
        "magickaModified":102,
        "magickaBase":102,
        "fatigueCurrent":220
      },
      "equipment":{
        "1":{
          "refId":"t_de_netch_cuirass_02",
          "count":1,
          "charge":-1,
          "enchantmentCharge":-1
        },
        "2":{
          "refId":"netch_leather_greaves",
          "count":1,
          "charge":-1,
          "enchantmentCharge":-1
        },
        "3":{
          "refId":"bm wolf left pauldron",
          "count":1,
          "charge":-1,
          "enchantmentCharge":-1
        },
        "4":{
          "refId":"bm wolf right pauldron",
          "count":1,
          "charge":-1,
          "enchantmentCharge":-1
        },
        "7":{
          "refId":"netch_leather_boots",
          "count":1,
          "charge":-1,
          "enchantmentCharge":-1
        },
        "16":{
          "refId":"iron tanto",
          "count":1,
          "charge":-1,
          "enchantmentCharge":-1
        }
      },
      "inventory":[{
          "refId":"netch_leather_boots",
          "count":1,
          "charge":-1,
          "enchantmentCharge":-1,
          "soul":""
        },{
          "refId":"netch_leather_greaves",
          "count":1,
          "charge":-1,
          "enchantmentCharge":-1,
          "soul":""
        },{
          "refId":"bm wolf right pauldron",
          "count":1,
          "charge":-1,
          "enchantmentCharge":-1,
          "soul":""
        },{
          "refId":"bm wolf left pauldron",
          "count":1,
          "charge":-1,
          "enchantmentCharge":-1,
          "soul":""
        },{
          "refId":"t_de_netch_cuirass_02",
          "count":1,
          "charge":-1,
          "enchantmentCharge":-1,
          "soul":""
        },{
          "refId":"ingred_netch_leather_01",
          "count":1,
          "charge":-1,
          "enchantmentCharge":-1,
          "soul":""
        },{
          "refId":"gold_001",
          "count":56,
          "charge":-1,
          "enchantmentCharge":-1,
          "soul":""
        },{
          "refId":"iron tanto",
          "count":1,
          "charge":-1,
          "enchantmentCharge":-1,
          "soul":""
        }]
    },
    "504592-0":{
      "refId":"chest_small_01_gold_50",
      "inventory":[{
          "refId":"gold_001",
          "count":50,
          "charge":-1,
          "enchantmentCharge":-1,
          "soul":""
        }]
    },
    "504302-0":{
      "refId":"tr_m3_sharnoga gra-mal",
      "location":{
        "posX":3555.5339355469,
        "posZ":11969.8828125,
        "posY":175.05749511719,
        "rotX":0,
        "rotY":0,
        "rotZ":1
      },
      "stats":{
        "healthCurrent":260,
        "magickaCurrent":150,
        "healthModified":260,
        "fatigueBase":396,
        "fatigueModified":396,
        "healthBase":260,
        "magickaModified":150,
        "magickaBase":150,
        "fatigueCurrent":396
      },
      "equipment":[{
          "refId":"t_com_steel_cuirass_02",
          "count":1,
          "charge":-1,
          "enchantmentCharge":-1
        },{
          "refId":"orcish_greaves",
          "count":1,
          "charge":-1,
          "enchantmentCharge":-1
        },{
          "refId":"t_nor_iron_pauldronl_01",
          "count":1,
          "charge":-1,
          "enchantmentCharge":-1
        },{
          "refId":"t_nor_iron_pauldronr_01",
          "count":1,
          "charge":-1,
          "enchantmentCharge":-1
        },{
          "refId":"steel_gauntlet_left",
          "count":1,
          "charge":-1,
          "enchantmentCharge":-1
        },{
          "refId":"steel_gauntlet_right",
          "count":1,
          "charge":-1,
          "enchantmentCharge":-1
        },{
          "refId":"orcish_boots",
          "count":1,
          "charge":-1,
          "enchantmentCharge":-1
        },null,null,{
          "refId":"common_skirt_04",
          "count":1,
          "charge":-1,
          "enchantmentCharge":-1
        },null,null,null,null,null,{
          "refId":"steel mace",
          "count":1,
          "charge":-1,
          "enchantmentCharge":-1
        }],
      "inventory":[{
          "refId":"steel_gauntlet_right",
          "count":1,
          "charge":-1,
          "enchantmentCharge":-1,
          "soul":""
        },{
          "refId":"steel_gauntlet_left",
          "count":1,
          "charge":-1,
          "enchantmentCharge":-1,
          "soul":""
        },{
          "refId":"orcish_boots",
          "count":1,
          "charge":-1,
          "enchantmentCharge":-1,
          "soul":""
        },{
          "refId":"orcish_greaves",
          "count":1,
          "charge":-1,
          "enchantmentCharge":-1,
          "soul":""
        },{
          "refId":"t_nor_iron_pauldronr_01",
          "count":1,
          "charge":-1,
          "enchantmentCharge":-1,
          "soul":""
        },{
          "refId":"t_nor_iron_pauldronl_01",
          "count":1,
          "charge":-1,
          "enchantmentCharge":-1,
          "soul":""
        },{
          "refId":"t_com_steel_cuirass_02",
          "count":1,
          "charge":-1,
          "enchantmentCharge":-1,
          "soul":""
        },{
          "refId":"common_skirt_04",
          "count":1,
          "charge":-1,
          "enchantmentCharge":-1,
          "soul":""
        },{
          "refId":"steel mace",
          "count":1,
          "charge":-1,
          "enchantmentCharge":-1,
          "soul":""
        }]
    },
    "505298-0":{
      "refId":"t_news_bellman_spawner_allw",
      "state":false
    },
    "0-329":{
      "refId":"t_news_bellman_01",
      "location":{
        "posX":4167.7509765625,
        "posZ":11771.319335938,
        "posY":-446.74935913086,
        "rotX":0,
        "rotY":0,
        "rotZ":2.0999999046326
      }
    },
    "505004-0":{
      "refId":"chest_small_02",
      "inventory":[]
    },
    "504305-0":{
      "refId":"tr_m3_mashag gro-agum",
      "location":{
        "posX":4533.4096679688,
        "posZ":11713,
        "posY":-352.34625244141,
        "rotX":0,
        "rotY":0,
        "rotZ":6.0831851959229
      },
      "stats":{
        "healthCurrent":176,
        "magickaCurrent":110,
        "healthModified":176,
        "fatigueBase":303,
        "fatigueModified":303,
        "healthBase":176,
        "magickaModified":110,
        "magickaBase":110,
        "fatigueCurrent":303
      },
      "equipment":[{
          "refId":"trollbone_cuirass",
          "count":1,
          "charge":-1,
          "enchantmentCharge":-1
        },{
          "refId":"t_com_iron_greaves_01",
          "count":1,
          "charge":-1,
          "enchantmentCharge":-1
        },{
          "refId":"t_nor_trollbone_pauldronl_01",
          "count":1,
          "charge":-1,
          "enchantmentCharge":-1
        },{
          "refId":"t_nor_trollbone_pauldronr_01",
          "count":1,
          "charge":-1,
          "enchantmentCharge":-1
        },{
          "refId":"t_nor_trollbone_bracerl_01",
          "count":1,
          "charge":-1,
          "enchantmentCharge":-1
        },{
          "refId":"t_nor_trollbone_bracerr_01",
          "count":1,
          "charge":-1,
          "enchantmentCharge":-1
        },{
          "refId":"t_com_iron_boots_01",
          "count":1,
          "charge":-1,
          "enchantmentCharge":-1
        },null,null,null,null,null,null,null,null,{
          "refId":"iron mace",
          "count":1,
          "charge":-1,
          "enchantmentCharge":-1
        }],
      "inventory":[{
          "refId":"p_restore_health_q",
          "count":2,
          "charge":-1,
          "enchantmentCharge":-1,
          "soul":""
        },{
          "refId":"p_restore_fatigue_q",
          "count":1,
          "charge":-1,
          "enchantmentCharge":-1,
          "soul":""
        },{
          "refId":"t_nor_trollbone_bracerr_01",
          "count":1,
          "charge":-1,
          "enchantmentCharge":-1,
          "soul":""
        },{
          "refId":"t_nor_trollbone_bracerl_01",
          "count":1,
          "charge":-1,
          "enchantmentCharge":-1,
          "soul":""
        },{
          "refId":"t_com_iron_boots_01",
          "count":1,
          "charge":-1,
          "enchantmentCharge":-1,
          "soul":""
        },{
          "refId":"t_com_iron_greaves_01",
          "count":1,
          "charge":-1,
          "enchantmentCharge":-1,
          "soul":""
        },{
          "refId":"t_nor_trollbone_pauldronr_01",
          "count":1,
          "charge":-1,
          "enchantmentCharge":-1,
          "soul":""
        },{
          "refId":"t_nor_trollbone_pauldronl_01",
          "count":1,
          "charge":-1,
          "enchantmentCharge":-1,
          "soul":""
        },{
          "refId":"trollbone_cuirass",
          "count":1,
          "charge":-1,
          "enchantmentCharge":-1,
          "soul":""
        },{
          "refId":"iron mace",
          "count":1,
          "charge":-1,
          "enchantmentCharge":-1,
          "soul":""
        }]
    },
    "504685-0":{
      "refId":"com_sack_03",
      "inventory":[]
    },
    "504301-0":{
      "refId":"tr_m3_rathys madalvel",
      "location":{
        "posX":4217.9443359375,
        "posZ":11713.680664063,
        "posY":326.25213623047,
        "rotX":0,
        "rotY":0,
        "rotZ":4.5831861495972
      },
      "stats":{
        "healthCurrent":151,
        "magickaCurrent":110,
        "healthModified":151,
        "fatigueBase":262,
        "fatigueModified":262,
        "healthBase":151,
        "magickaModified":110,
        "magickaBase":110,
        "fatigueCurrent":262
      },
      "equipment":[{
          "refId":"t_com_chain_cuirass_03",
          "count":1,
          "charge":-1,
          "enchantmentCharge":-1
        },{
          "refId":"netch_leather_greaves",
          "count":1,
          "charge":-1,
          "enchantmentCharge":-1
        },null,null,{
          "refId":"iron_bracer_left",
          "count":1,
          "charge":-1,
          "enchantmentCharge":-1
        },{
          "refId":"iron_bracer_right",
          "count":1,
          "charge":-1,
          "enchantmentCharge":-1
        },{
          "refId":"netch_leather_boots",
          "count":1,
          "charge":-1,
          "enchantmentCharge":-1
        },{
          "refId":"common_shirt_02_h",
          "count":1,
          "charge":-1,
          "enchantmentCharge":-1
        },{
          "refId":"common_pants_03",
          "count":1,
          "charge":-1,
          "enchantmentCharge":-1
        },null,null,null,null,null,null,{
          "refId":"dwemer jinksword",
          "count":1,
          "charge":-1,
          "enchantmentCharge":-1
        }],
      "inventory":[{
          "refId":"iron_bracer_right",
          "count":1,
          "charge":-1,
          "enchantmentCharge":-1,
          "soul":""
        },{
          "refId":"iron_bracer_left",
          "count":1,
          "charge":-1,
          "enchantmentCharge":-1,
          "soul":""
        },{
          "refId":"netch_leather_boots",
          "count":1,
          "charge":-1,
          "enchantmentCharge":-1,
          "soul":""
        },{
          "refId":"netch_leather_greaves",
          "count":1,
          "charge":-1,
          "enchantmentCharge":-1,
          "soul":""
        },{
          "refId":"t_com_chain_cuirass_03",
          "count":1,
          "charge":-1,
          "enchantmentCharge":-1,
          "soul":""
        },{
          "refId":"common_shirt_02_h",
          "count":1,
          "charge":-1,
          "enchantmentCharge":-1,
          "soul":""
        },{
          "refId":"common_pants_03",
          "count":1,
          "charge":-1,
          "enchantmentCharge":-1,
          "soul":""
        },{
          "refId":"dwemer jinksword",
          "count":1,
          "charge":-1,
          "enchantmentCharge":-1,
          "soul":""
        }]
    },
    "504948-0":{
      "refId":"com_hutch_01_plates",
      "inventory":[{
          "refId":"misc_com_metal_plate_03",
          "count":4,
          "charge":-1,
          "enchantmentCharge":-1,
          "soul":""
        }]
    },
    "504947-0":{
      "refId":"chest_small_01_gold_05",
      "inventory":[{
          "refId":"gold_001",
          "count":5,
          "charge":-1,
          "enchantmentCharge":-1,
          "soul":""
        }]
    },
    "504300-0":{
      "refId":"tr_m3_hvederik",
      "location":{
        "posX":4462.3852539063,
        "posZ":11713.469726563,
        "posY":955.38269042969,
        "rotX":0.017917400225997,
        "rotY":0,
        "rotZ":-1.6555345058441
      },
      "stats":{
        "healthCurrent":77,
        "magickaCurrent":64,
        "healthModified":77,
        "fatigueBase":203,
        "fatigueModified":203,
        "healthBase":77,
        "magickaModified":64,
        "magickaBase":64,
        "fatigueCurrent":203
      },
      "equipment":{
        "7":{
          "refId":"fur_boots",
          "count":1,
          "charge":-1,
          "enchantmentCharge":-1
        },
        "8":{
          "refId":"t_de_et_shirt_01",
          "count":1,
          "charge":-1,
          "enchantmentCharge":-1
        },
        "16":{
          "refId":"t_nor_orn_battleaxe_01",
          "count":1,
          "charge":-1,
          "enchantmentCharge":-1
        },
        "9":{
          "refId":"extravagant_pants_02",
          "count":1,
          "charge":-1,
          "enchantmentCharge":-1
        }
      },
      "inventory":[{
          "refId":"fur_boots",
          "count":1,
          "charge":-1,
          "enchantmentCharge":-1,
          "soul":""
        },{
          "refId":"t_de_et_shirt_01",
          "count":1,
          "charge":-1,
          "enchantmentCharge":-1,
          "soul":""
        },{
          "refId":"extravagant_pants_02",
          "count":1,
          "charge":-1,
          "enchantmentCharge":-1,
          "soul":""
        },{
          "refId":"light_com_candle_10_64",
          "count":1,
          "charge":-1,
          "enchantmentCharge":-1,
          "soul":""
        },{
          "refId":"t_nor_orn_battleaxe_01",
          "count":1,
          "charge":-1,
          "enchantmentCharge":-1,
          "soul":""
        }]
    },
    "504382-0":{
      "refId":"com_sack_01",
      "inventory":[]
    },
    "505159-0":{
      "refId":"com_chest_02_l_arm_01",
      "inventory":[]
    },
    "504674-0":{
      "refId":"com_sack_01",
      "inventory":[]
    },
    "504707-0":{
      "refId":"com_sack_03",
      "inventory":[]
    },
    "504413-0":{
      "refId":"com_sack_01",
      "inventory":[]
    },
    "504304-0":{
      "refId":"tr_m3_hulga",
      "location":{
        "posX":4369.740234375,
        "posZ":11713.680664063,
        "posY":365.08779907227,
        "rotX":-0.011319668032229,
        "rotY":0,
        "rotZ":2.717208147049
      },
      "stats":{
        "healthCurrent":89,
        "magickaCurrent":66,
        "healthModified":89,
        "fatigueBase":222,
        "fatigueModified":222,
        "healthBase":89,
        "magickaModified":66,
        "magickaBase":66,
        "fatigueCurrent":222
      },
      "equipment":{
        "7":{
          "refId":"common_shoes_02",
          "count":1,
          "charge":-1,
          "enchantmentCharge":-1
        },
        "8":{
          "refId":"common_shirt_02",
          "count":1,
          "charge":-1,
          "enchantmentCharge":-1
        },
        "9":{
          "refId":"common_pants_03",
          "count":1,
          "charge":-1,
          "enchantmentCharge":-1
        },
        "10":{
          "refId":"common_skirt_03",
          "count":1,
          "charge":-1,
          "enchantmentCharge":-1
        },
        "16":{
          "refId":"iron dagger",
          "count":1,
          "charge":-1,
          "enchantmentCharge":-1
        }
      },
      "inventory":[{
          "refId":"common_skirt_03",
          "count":1,
          "charge":-1,
          "enchantmentCharge":-1,
          "soul":""
        },{
          "refId":"common_shirt_02",
          "count":1,
          "charge":-1,
          "enchantmentCharge":-1,
          "soul":""
        },{
          "refId":"common_shoes_02",
          "count":1,
          "charge":-1,
          "enchantmentCharge":-1,
          "soul":""
        },{
          "refId":"common_pants_03",
          "count":1,
          "charge":-1,
          "enchantmentCharge":-1,
          "soul":""
        },{
          "refId":"iron dagger",
          "count":1,
          "charge":-1,
          "enchantmentCharge":-1,
          "soul":""
        }]
    },
    "505158-0":{
      "refId":"com_chest_02_v_armor08",
      "inventory":[{
          "refId":"iron_bracer_right",
          "count":1,
          "charge":-1,
          "enchantmentCharge":-1,
          "soul":""
        },{
          "refId":"iron_bracer_left",
          "count":1,
          "charge":-1,
          "enchantmentCharge":-1,
          "soul":""
        },{
          "refId":"iron_shield",
          "count":1,
          "charge":-1,
          "enchantmentCharge":-1,
          "soul":""
        },{
          "refId":"steel_shield",
          "count":1,
          "charge":-1,
          "enchantmentCharge":-1,
          "soul":""
        },{
          "refId":"iron boots",
          "count":1,
          "charge":-1,
          "enchantmentCharge":-1,
          "soul":""
        },{
          "refId":"steel_pauldron_right",
          "count":1,
          "charge":-1,
          "enchantmentCharge":-1,
          "soul":""
        },{
          "refId":"steel_pauldron_left",
          "count":1,
          "charge":-1,
          "enchantmentCharge":-1,
          "soul":""
        },{
          "refId":"iron_helmet",
          "count":1,
          "charge":-1,
          "enchantmentCharge":-1,
          "soul":""
        }]
    },
    "504708-0":{
      "refId":"com_sack_01",
      "inventory":[]
    },
    "504299-0":{
      "refId":"tr_m3_foedus locutius",
      "location":{
        "posX":3941.1435546875,
        "posZ":11713,
        "posY":-676.08630371094,
        "rotX":0,
        "rotY":0,
        "rotZ":5.9831857681274
      },
      "stats":{
        "healthCurrent":205,
        "magickaCurrent":108,
        "healthModified":205,
        "fatigueBase":302,
        "fatigueModified":302,
        "healthBase":205,
        "magickaModified":108,
        "magickaBase":108,
        "fatigueCurrent":302
      },
      "equipment":[{
          "refId":"imperial_studded_cuirass",
          "count":1,
          "charge":-1,
          "enchantmentCharge":-1
        },{
          "refId":"steel_greaves",
          "count":1,
          "charge":-1,
          "enchantmentCharge":-1
        },{
          "refId":"adamantium_pauldron_left",
          "count":1,
          "charge":-1,
          "enchantmentCharge":-1
        },{
          "refId":"adamantium_pauldron_right",
          "count":1,
          "charge":-1,
          "enchantmentCharge":-1
        },{
          "refId":"steel_gauntlet_left",
          "count":1,
          "charge":-1,
          "enchantmentCharge":-1
        },{
          "refId":"steel_gauntlet_right",
          "count":1,
          "charge":-1,
          "enchantmentCharge":-1
        },{
          "refId":"steel_boots",
          "count":1,
          "charge":-1,
          "enchantmentCharge":-1
        },{
          "refId":"common_shirt_02",
          "count":1,
          "charge":-1,
          "enchantmentCharge":-1
        },null,{
          "refId":"expensive_skirt_02",
          "count":1,
          "charge":-1,
          "enchantmentCharge":-1
        },null,null,null,null,null,{
          "refId":"t_imp_legion_broadsword_02",
          "count":1,
          "charge":-1,
          "enchantmentCharge":-1
        }],
      "inventory":[{
          "refId":"steel_gauntlet_right",
          "count":1,
          "charge":-1,
          "enchantmentCharge":-1,
          "soul":""
        },{
          "refId":"steel_gauntlet_left",
          "count":1,
          "charge":-1,
          "enchantmentCharge":-1,
          "soul":""
        },{
          "refId":"steel_boots",
          "count":1,
          "charge":-1,
          "enchantmentCharge":-1,
          "soul":""
        },{
          "refId":"steel_greaves",
          "count":1,
          "charge":-1,
          "enchantmentCharge":-1,
          "soul":""
        },{
          "refId":"adamantium_pauldron_right",
          "count":1,
          "charge":-1,
          "enchantmentCharge":-1,
          "soul":""
        },{
          "refId":"adamantium_pauldron_left",
          "count":1,
          "charge":-1,
          "enchantmentCharge":-1,
          "soul":""
        },{
          "refId":"imperial_studded_cuirass",
          "count":1,
          "charge":-1,
          "enchantmentCharge":-1,
          "soul":""
        },{
          "refId":"expensive_skirt_02",
          "count":1,
          "charge":-1,
          "enchantmentCharge":-1,
          "soul":""
        },{
          "refId":"common_shirt_02",
          "count":1,
          "charge":-1,
          "enchantmentCharge":-1,
          "soul":""
        },{
          "refId":"t_imp_legion_broadsword_02",
          "count":1,
          "charge":-1,
          "enchantmentCharge":-1,
          "soul":""
        }]
    },
    "504675-0":{
      "refId":"com_sack_01",
      "inventory":[]
    },
    "505142-0":{
      "refId":"com_drawers_01_expcloth",
      "inventory":[{
          "refId":"expensive_glove_left_01",
          "count":2,
          "charge":-1,
          "enchantmentCharge":-1,
          "soul":""
        },{
          "refId":"expensive_glove_right_01",
          "count":2,
          "charge":-1,
          "enchantmentCharge":-1,
          "soul":""
        },{
          "refId":"expensive_belt_03",
          "count":2,
          "charge":-1,
          "enchantmentCharge":-1,
          "soul":""
        },{
          "refId":"expensive_shirt_03",
          "count":3,
          "charge":-1,
          "enchantmentCharge":-1,
          "soul":""
        },{
          "refId":"expensive_shoes_03",
          "count":2,
          "charge":-1,
          "enchantmentCharge":-1,
          "soul":""
        },{
          "refId":"expensive_pants_03",
          "count":4,
          "charge":-1,
          "enchantmentCharge":-1,
          "soul":""
        }]
    },
    "504939-0":{
      "refId":"com_chest_02_v_weapon03",
      "inventory":[{
          "refId":"iron bolt",
          "count":100,
          "charge":-1,
          "enchantmentCharge":-1,
          "soul":""
        },{
          "refId":"chitin arrow",
          "count":150,
          "charge":-1,
          "enchantmentCharge":-1,
          "soul":""
        },{
          "refId":"chitin short bow",
          "count":1,
          "charge":-1,
          "enchantmentCharge":-1,
          "soul":""
        },{
          "refId":"chitin spear",
          "count":1,
          "charge":-1,
          "enchantmentCharge":-1,
          "soul":""
        },{
          "refId":"chitin dagger",
          "count":4,
          "charge":-1,
          "enchantmentCharge":-1,
          "soul":""
        },{
          "refId":"iron dagger",
          "count":1,
          "charge":-1,
          "enchantmentCharge":-1,
          "soul":""
        }]
    },
    "504952-0":{
      "refId":"com_sack_02",
      "inventory":[]
    },
    "504412-0":{
      "refId":"com_sack_01",
      "inventory":[]
    },
    "504593-0":{
      "refId":"chest_small_01_gold_10",
      "inventory":[{
          "refId":"gold_001",
          "count":10,
          "charge":-1,
          "enchantmentCharge":-1,
          "soul":""
        }]
    },
    "504303-0":{
      "refId":"tr_m3_heebeen",
      "location":{
        "posX":4069.7863769531,
        "posZ":12225,
        "posY":954.30480957031,
        "rotX":0,
        "rotY":0,
        "rotZ":0.40000000596046
      },
      "stats":{
        "healthCurrent":46,
        "magickaCurrent":82,
        "healthModified":46,
        "fatigueBase":164,
        "fatigueModified":164,
        "healthBase":46,
        "magickaModified":82,
        "magickaBase":82,
        "fatigueCurrent":164
      },
      "equipment":[null,null,null,null,null,null,null,{
          "refId":"common_shirt_04",
          "count":1,
          "charge":-1,
          "enchantmentCharge":-1
        },{
          "refId":"common_pants_04",
          "count":1,
          "charge":-1,
          "enchantmentCharge":-1
        }],
      "inventory":[{
          "refId":"common_shirt_04",
          "count":1,
          "charge":-1,
          "enchantmentCharge":-1,
          "soul":""
        },{
          "refId":"common_pants_04",
          "count":1,
          "charge":-1,
          "enchantmentCharge":-1,
          "soul":""
        },{
          "refId":"food_kwama_egg_01",
          "count":1,
          "charge":-1,
          "enchantmentCharge":-1,
          "soul":""
        },{
          "refId":"misc_com_broom_01",
          "count":1,
          "charge":-1,
          "enchantmentCharge":-1,
          "soul":""
        },{
          "refId":"misc_com_bucket_01",
          "count":1,
          "charge":-1,
          "enchantmentCharge":-1,
          "soul":""
        }]
    },
    "504706-0":{
      "refId":"com_sack_01",
      "inventory":[]
    },
    "504411-0":{
      "refId":"com_sack_01",
      "inventory":[]
    },
    "504965-0":{
      "refId":"com_chest_02_v_weapon01",
      "inventory":[{
          "refId":"chitin throwing star",
          "count":100,
          "charge":-1,
          "enchantmentCharge":-1,
          "soul":""
        },{
          "refId":"bonemold long bow",
          "count":1,
          "charge":-1,
          "enchantmentCharge":-1,
          "soul":""
        },{
          "refId":"iron battle axe",
          "count":1,
          "charge":-1,
          "enchantmentCharge":-1,
          "soul":""
        },{
          "refId":"chitin short bow",
          "count":59,
          "charge":-1,
          "enchantmentCharge":-1,
          "soul":""
        },{
          "refId":"long bow",
          "count":41,
          "charge":-1,
          "enchantmentCharge":-1,
          "soul":""
        },{
          "refId":"chitin arrow",
          "count":300,
          "charge":-1,
          "enchantmentCharge":-1,
          "soul":""
        }]
    },
    "505155-0":{
      "refId":"t_cyrimp_furnm_cl2empty",
      "inventory":[]
    },
    "505122-0":{
      "refId":"t_mwcom_furn_ch2fguild",
      "inventory":[{
          "refId":"p_restore_fatigue_s",
          "count":10,
          "charge":-1,
          "enchantmentCharge":-1,
          "soul":""
        },{
          "refId":"p_restore_health_s",
          "count":5,
          "charge":-1,
          "enchantmentCharge":-1,
          "soul":""
        },{
          "refId":"p_restore_health_c",
          "count":10,
          "charge":-1,
          "enchantmentCharge":-1,
          "soul":""
        },{
          "refId":"p_fortify_health_s",
          "count":3,
          "charge":-1,
          "enchantmentCharge":-1,
          "soul":""
        },{
          "refId":"repair_journeyman_01",
          "count":2,
          "charge":-1,
          "enchantmentCharge":-1,
          "soul":""
        },{
          "refId":"hammer_repair",
          "count":10,
          "charge":-1,
          "enchantmentCharge":-1,
          "soul":""
        },{
          "refId":"iron bolt",
          "count":100,
          "charge":-1,
          "enchantmentCharge":-1,
          "soul":""
        },{
          "refId":"iron arrow",
          "count":100,
          "charge":-1,
          "enchantmentCharge":-1,
          "soul":""
        }]
    },
    "504684-0":{
      "refId":"sack_small_(scale)00",
      "inventory":[]
    }
  },
  "loadState":{
    "hasFullContainerData":true,
    "hasFullActorList":true
  }
}