{
  "packets":{
    "actorList":["515114-0","515112-0","515113-0"],
    "ai":[],
    "cellChangeFrom":[],
    "cellChangeTo":[],
    "container":["515182-0","515184-0","515185-0","515186-0","515187-0","515188-0","515189-0","515190-0","515191-0","515192-0","515207-0","515208-0","515210-0","515459-0","515461-0","515530-0","515604-0","515605-0","515606-0","515610-0","515617-0","515629-0","515661-0","515662-0","515663-0","515667-0","515683-0","515684-0","515688-0","515689-0","515690-0","515691-0","515692-0","515693-0","515712-0","515726-0","515727-0","515728-0","515729-0","515746-0","515112-0","515113-0","515114-0"],
    "death":[],
    "delete":[],
    "doorState":[],
    "equipment":["515114-0","515112-0","515113-0"],
    "lock":[],
    "place":["0-324","0-326"],
    "position":["515112-0","515113-0","515114-0"],
    "scale":[],
    "spawn":[],
    "state":["515750-0"],
    "statsDynamic":["515112-0","515113-0","515114-0"],
    "trap":[],
    "spellsActive":[],
    "miscellaneous":["515113-0"],
    "clientScriptLocal":[]
  },
  "entry":{
    "creationTime":1651021960,
    "description":"Old Ebonheart, Emercius' Quality Wares"
  },
  "lastVisit":{
    "Arnas":1651021984,
    "Katherine":1651023468
  },
  "recordLinks":[],
  "objectData":{
    "515663-0":{
      "refId":"crate_02_empty",
      "inventory":[]
    },
    "515188-0":{
      "refId":"crate_02_bottle05_5",
      "inventory":[{
          "refId":"misc_com_bottle_05",
          "count":5,
          "charge":-1,
          "enchantmentCharge":-1,
          "soul":""
        }]
    },
    "515617-0":{
      "refId":"flora_plant_04",
      "inventory":[{
          "refId":"ingred_meadow_rye_01",
          "count":2,
          "charge":-1,
          "enchantmentCharge":-1,
          "soul":""
        }]
    },
    "515689-0":{
      "refId":"crate_02_random_pos",
      "inventory":[{
          "refId":"sc_paper plain",
          "count":1,
          "charge":-1,
          "enchantmentCharge":-1,
          "soul":""
        },{
          "refId":"misc_com_bottle_10",
          "count":1,
          "charge":-1,
          "enchantmentCharge":-1,
          "soul":""
        },{
          "refId":"misc_com_wood_spoon_02",
          "count":2,
          "charge":-1,
          "enchantmentCharge":-1,
          "soul":""
        },{
          "refId":"misc_com_bottle_15",
          "count":1,
          "charge":-1,
          "enchantmentCharge":-1,
          "soul":""
        },{
          "refId":"misc_com_metal_goblet_01",
          "count":1,
          "charge":-1,
          "enchantmentCharge":-1,
          "soul":""
        },{
          "refId":"gold_001",
          "count":8,
          "charge":-1,
          "enchantmentCharge":-1,
          "soul":""
        },{
          "refId":"silver shardblade",
          "count":1,
          "charge":-1,
          "enchantmentCharge":-1,
          "soul":""
        }]
    },
    "515182-0":{
      "refId":"barrel_02_pants",
      "inventory":[{
          "refId":"common_pants_01_e",
          "count":1,
          "charge":-1,
          "enchantmentCharge":-1,
          "soul":""
        },{
          "refId":"common_pants_01_u",
          "count":1,
          "charge":-1,
          "enchantmentCharge":-1,
          "soul":""
        },{
          "refId":"common_pants_02",
          "count":1,
          "charge":-1,
          "enchantmentCharge":-1,
          "soul":""
        },{
          "refId":"common_pants_04",
          "count":1,
          "charge":-1,
          "enchantmentCharge":-1,
          "soul":""
        },{
          "refId":"common_pants_03",
          "count":1,
          "charge":-1,
          "enchantmentCharge":-1,
          "soul":""
        }]
    },
    "515207-0":{
      "refId":"barrel_01_ingredients",
      "inventory":[{
          "refId":"ingred_scuttle_01",
          "count":1,
          "charge":-1,
          "enchantmentCharge":-1,
          "soul":""
        },{
          "refId":"ingred_sload_soap_01",
          "count":1,
          "charge":-1,
          "enchantmentCharge":-1,
          "soul":""
        },{
          "refId":"ingred_dreugh_wax_01",
          "count":1,
          "charge":-1,
          "enchantmentCharge":-1,
          "soul":""
        },{
          "refId":"ingred_crab_meat_01",
          "count":1,
          "charge":-1,
          "enchantmentCharge":-1,
          "soul":""
        },{
          "refId":"ingred_willow_anther_01",
          "count":1,
          "charge":-1,
          "enchantmentCharge":-1,
          "soul":""
        },{
          "refId":"ingred_rat_meat_01",
          "count":1,
          "charge":-1,
          "enchantmentCharge":-1,
          "soul":""
        },{
          "refId":"ingred_trama_root_01",
          "count":1,
          "charge":-1,
          "enchantmentCharge":-1,
          "soul":""
        }]
    },
    "515684-0":{
      "refId":"crate_01",
      "inventory":[{
          "refId":"gold_001",
          "count":9,
          "charge":-1,
          "enchantmentCharge":-1,
          "soul":""
        }]
    },
    "515113-0":{
      "refId":"tr_m3_emercius ludoviil",
      "location":{
        "posX":-1026.8885498047,
        "posZ":897,
        "posY":-428.1764831543,
        "rotX":0,
        "rotY":0,
        "rotZ":-1.3271329402924
      },
      "stats":{
        "healthCurrent":94,
        "magickaCurrent":106,
        "healthModified":94,
        "fatigueBase":196,
        "fatigueModified":196,
        "healthBase":94,
        "magickaModified":106,
        "magickaBase":106,
        "fatigueCurrent":196
      },
      "equipment":{
        "7":{
          "refId":"common_shoes_05",
          "count":1,
          "charge":-1,
          "enchantmentCharge":-1
        },
        "8":{
          "refId":"exquisite_shirt_01",
          "count":1,
          "charge":-1,
          "enchantmentCharge":-1
        },
        "16":{
          "refId":"imperial shortsword",
          "count":1,
          "charge":-1,
          "enchantmentCharge":-1
        },
        "9":{
          "refId":"common_pants_05",
          "count":1,
          "charge":-1,
          "enchantmentCharge":-1
        }
      },
      "inventory":[{
          "refId":"exquisite_shirt_01",
          "count":1,
          "charge":-1,
          "enchantmentCharge":-1,
          "soul":""
        },{
          "refId":"common_shoes_05",
          "count":1,
          "charge":-1,
          "enchantmentCharge":-1,
          "soul":""
        },{
          "refId":"common_pants_05",
          "count":1,
          "charge":-1,
          "enchantmentCharge":-1,
          "soul":""
        },{
          "refId":"ingred_emerald_01",
          "count":1,
          "charge":-1,
          "enchantmentCharge":-1,
          "soul":""
        },{
          "refId":"gold_001",
          "count":56,
          "charge":-1,
          "enchantmentCharge":-1,
          "soul":""
        },{
          "refId":"imperial shortsword",
          "count":1,
          "charge":-1,
          "enchantmentCharge":-1,
          "soul":""
        },{
          "refId":"ingred_timsa-come-by_01",
          "count":6,
          "charge":-1,
          "enchantmentCharge":-1,
          "soul":""
        },{
          "refId":"misc_flask_02",
          "count":1,
          "charge":-1,
          "enchantmentCharge":-1,
          "soul":""
        },{
          "refId":"misc_flask_04",
          "count":1,
          "charge":-1,
          "enchantmentCharge":-1,
          "soul":""
        },{
          "refId":"misc_de_foldedcloth00",
          "count":1,
          "charge":-1,
          "enchantmentCharge":-1,
          "soul":""
        },{
          "refId":"misc_shears_01",
          "count":1,
          "charge":-1,
          "enchantmentCharge":-1,
          "soul":""
        }],
      "goldPool":650,
      "lastGoldRestockHour":0.1601817458868,
      "lastGoldRestockDay":8
    },
    "515604-0":{
      "refId":"crate_01_food",
      "inventory":[{
          "refId":"ingred_bread_01",
          "count":4,
          "charge":-1,
          "enchantmentCharge":-1,
          "soul":""
        }]
    },
    "515606-0":{
      "refId":"crate_01_levelweapons",
      "inventory":[{
          "refId":"iron longsword",
          "count":2,
          "charge":-1,
          "enchantmentCharge":-1,
          "soul":""
        },{
          "refId":"wooden staff of peace",
          "count":1,
          "charge":-1,
          "enchantmentCharge":-1,
          "soul":""
        }]
    },
    "515187-0":{
      "refId":"crate_01_vials",
      "inventory":[{
          "refId":"misc_skooma_vial",
          "count":3,
          "charge":-1,
          "enchantmentCharge":-1,
          "soul":""
        }]
    },
    "0-326":{
      "refId":"t_news_bellman_05",
      "location":{
        "posX":-1195.3256835938,
        "posZ":1463.5870361328,
        "posY":-828.92095947266,
        "rotX":0,
        "rotY":0,
        "rotZ":0.39999985694885
      }
    },
    "515114-0":{
      "refId":"tr_m3_plinus ludoviil",
      "location":{
        "posX":-1023.7730712891,
        "posZ":1408.9998779297,
        "posY":-919.27136230469,
        "rotX":0,
        "rotY":0,
        "rotZ":0.82500159740448
      },
      "stats":{
        "healthCurrent":79,
        "magickaCurrent":120,
        "healthModified":79,
        "fatigueBase":176,
        "fatigueModified":176,
        "healthBase":79,
        "magickaModified":120,
        "magickaBase":120,
        "fatigueCurrent":176
      },
      "equipment":{
        "7":{
          "refId":"expensive_shoes_mournhold",
          "count":1,
          "charge":-1,
          "enchantmentCharge":-1
        },
        "11":{
          "refId":"extravagant_robe_01",
          "count":1,
          "charge":-1,
          "enchantmentCharge":-1
        },
        "14":{
          "refId":"exquisite_amulet_01",
          "count":1,
          "charge":-1,
          "enchantmentCharge":-1
        }
      },
      "inventory":[{
          "refId":"exquisite_amulet_01",
          "count":1,
          "charge":-1,
          "enchantmentCharge":-1,
          "soul":""
        },{
          "refId":"extravagant_robe_01",
          "count":1,
          "charge":-1,
          "enchantmentCharge":-1,
          "soul":""
        },{
          "refId":"expensive_shoes_mournhold",
          "count":1,
          "charge":-1,
          "enchantmentCharge":-1,
          "soul":""
        }]
    },
    "515667-0":{
      "refId":"crate_02_empty",
      "inventory":[]
    },
    "515112-0":{
      "refId":"tr_imp_guard",
      "location":{
        "posX":-1164.3209228516,
        "posZ":897,
        "posY":-210.86273193359,
        "rotX":-0.0072906725108624,
        "rotY":0,
        "rotZ":-2.9067137241364
      },
      "stats":{
        "healthCurrent":244,
        "magickaCurrent":132,
        "healthModified":244,
        "fatigueBase":317,
        "fatigueModified":317,
        "healthBase":244,
        "magickaModified":132,
        "magickaBase":132,
        "fatigueCurrent":317
      },
      "equipment":{
        "0":{
          "refId":"imperial helmet armor",
          "count":1,
          "charge":-1,
          "enchantmentCharge":-1
        },
        "1":{
          "refId":"imperial cuirass_armor",
          "count":1,
          "charge":-1,
          "enchantmentCharge":-1
        },
        "2":{
          "refId":"imperial_greaves",
          "count":1,
          "charge":-1,
          "enchantmentCharge":-1
        },
        "3":{
          "refId":"imperial left pauldron",
          "count":1,
          "charge":-1,
          "enchantmentCharge":-1
        },
        "4":{
          "refId":"imperial right pauldron",
          "count":1,
          "charge":-1,
          "enchantmentCharge":-1
        },
        "5":{
          "refId":"imperial left gauntlet",
          "count":1,
          "charge":-1,
          "enchantmentCharge":-1
        },
        "6":{
          "refId":"imperial right gauntlet",
          "count":1,
          "charge":-1,
          "enchantmentCharge":-1
        },
        "7":{
          "refId":"imperial boots",
          "count":1,
          "charge":-1,
          "enchantmentCharge":-1
        },
        "10":{
          "refId":"imperial skirt_clothing",
          "count":1,
          "charge":-1,
          "enchantmentCharge":-1
        },
        "15":{
          "refId":"imperial belt",
          "count":1,
          "charge":-1,
          "enchantmentCharge":-1
        },
        "16":{
          "refId":"silver spear",
          "count":1,
          "charge":-1,
          "enchantmentCharge":-1
        },
        "17":{
          "refId":"imperial shield",
          "count":1,
          "charge":-1,
          "enchantmentCharge":-1
        }
      },
      "inventory":[{
          "refId":"p_restore_health_b",
          "count":3,
          "charge":-1,
          "enchantmentCharge":-1,
          "soul":""
        },{
          "refId":"imperial right gauntlet",
          "count":1,
          "charge":-1,
          "enchantmentCharge":-1,
          "soul":""
        },{
          "refId":"imperial left gauntlet",
          "count":1,
          "charge":-1,
          "enchantmentCharge":-1,
          "soul":""
        },{
          "refId":"imperial boots",
          "count":1,
          "charge":-1,
          "enchantmentCharge":-1,
          "soul":""
        },{
          "refId":"imperial_greaves",
          "count":1,
          "charge":-1,
          "enchantmentCharge":-1,
          "soul":""
        },{
          "refId":"imperial right pauldron",
          "count":1,
          "charge":-1,
          "enchantmentCharge":-1,
          "soul":""
        },{
          "refId":"imperial left pauldron",
          "count":1,
          "charge":-1,
          "enchantmentCharge":-1,
          "soul":""
        },{
          "refId":"imperial cuirass_armor",
          "count":1,
          "charge":-1,
          "enchantmentCharge":-1,
          "soul":""
        },{
          "refId":"imperial shield",
          "count":1,
          "charge":-1,
          "enchantmentCharge":-1,
          "soul":""
        },{
          "refId":"imperial helmet armor",
          "count":1,
          "charge":-1,
          "enchantmentCharge":-1,
          "soul":""
        },{
          "refId":"imperial belt",
          "count":1,
          "charge":-1,
          "enchantmentCharge":-1,
          "soul":""
        },{
          "refId":"imperial skirt_clothing",
          "count":1,
          "charge":-1,
          "enchantmentCharge":-1,
          "soul":""
        },{
          "refId":"torch_infinite_time",
          "count":1,
          "charge":-1,
          "enchantmentCharge":-1,
          "soul":""
        },{
          "refId":"silver spear",
          "count":1,
          "charge":-1,
          "enchantmentCharge":-1,
          "soul":""
        }]
    },
    "515683-0":{
      "refId":"barrel_01",
      "inventory":[]
    },
    "515750-0":{
      "refId":"t_news_bellman_spawner_freq",
      "state":false
    },
    "515184-0":{
      "refId":"barrel_02_pants",
      "inventory":[{
          "refId":"common_pants_01_e",
          "count":1,
          "charge":-1,
          "enchantmentCharge":-1,
          "soul":""
        },{
          "refId":"common_pants_01_u",
          "count":1,
          "charge":-1,
          "enchantmentCharge":-1,
          "soul":""
        },{
          "refId":"common_pants_02",
          "count":1,
          "charge":-1,
          "enchantmentCharge":-1,
          "soul":""
        },{
          "refId":"common_pants_04",
          "count":1,
          "charge":-1,
          "enchantmentCharge":-1,
          "soul":""
        },{
          "refId":"common_pants_03",
          "count":1,
          "charge":-1,
          "enchantmentCharge":-1,
          "soul":""
        }]
    },
    "515629-0":{
      "refId":"barrel_01_drinks",
      "inventory":[{
          "refId":"potion_local_brew_01",
          "count":2,
          "charge":-1,
          "enchantmentCharge":-1,
          "soul":""
        },{
          "refId":"potion_comberry_brandy_01",
          "count":2,
          "charge":-1,
          "enchantmentCharge":-1,
          "soul":""
        },{
          "refId":"potion_local_liquor_01",
          "count":1,
          "charge":-1,
          "enchantmentCharge":-1,
          "soul":""
        }]
    },
    "515688-0":{
      "refId":"crate_02_pillows",
      "inventory":[{
          "refId":"misc_uni_pillow_01",
          "count":8,
          "charge":-1,
          "enchantmentCharge":-1,
          "soul":""
        }]
    },
    "515459-0":{
      "refId":"flora_plant_04",
      "inventory":[{
          "refId":"ingred_meadow_rye_01",
          "count":2,
          "charge":-1,
          "enchantmentCharge":-1,
          "soul":""
        }]
    },
    "515728-0":{
      "refId":"crate_01_empty",
      "inventory":[]
    },
    "515208-0":{
      "refId":"crate_01_levelweapons",
      "inventory":[{
          "refId":"chitin spear",
          "count":2,
          "charge":-1,
          "enchantmentCharge":-1,
          "soul":""
        },{
          "refId":"chitin war axe",
          "count":1,
          "charge":-1,
          "enchantmentCharge":-1,
          "soul":""
        }]
    },
    "515690-0":{
      "refId":"crate_02_random_pos",
      "inventory":[{
          "refId":"p_restore_speed_e",
          "count":1,
          "charge":-1,
          "enchantmentCharge":-1,
          "soul":""
        },{
          "refId":"sc_paper plain",
          "count":1,
          "charge":-1,
          "enchantmentCharge":-1,
          "soul":""
        },{
          "refId":"misc_com_bottle_15",
          "count":2,
          "charge":-1,
          "enchantmentCharge":-1,
          "soul":""
        },{
          "refId":"misc_com_wood_bowl_04",
          "count":1,
          "charge":-1,
          "enchantmentCharge":-1,
          "soul":""
        },{
          "refId":"misc_com_redware_cup",
          "count":1,
          "charge":-1,
          "enchantmentCharge":-1,
          "soul":""
        },{
          "refId":"gold_001",
          "count":5,
          "charge":-1,
          "enchantmentCharge":-1,
          "soul":""
        },{
          "refId":"cruel sparkarrow",
          "count":20,
          "charge":-1,
          "enchantmentCharge":-1,
          "soul":""
        }]
    },
    "515461-0":{
      "refId":"flora_plant_04",
      "inventory":[{
          "refId":"ingred_meadow_rye_01",
          "count":2,
          "charge":-1,
          "enchantmentCharge":-1,
          "soul":""
        }]
    },
    "515712-0":{
      "refId":"com_chest_02_misc01",
      "inventory":[{
          "refId":"gold_001",
          "count":5,
          "charge":-1,
          "enchantmentCharge":-1,
          "soul":""
        },{
          "refId":"steel axe",
          "count":1,
          "charge":-1,
          "enchantmentCharge":-1,
          "soul":""
        }]
    },
    "515746-0":{
      "refId":"tr_m3_oe_emercius_chest",
      "inventory":[{
          "refId":"p_restore_magicka_e",
          "count":3,
          "charge":-1,
          "enchantmentCharge":-1,
          "soul":""
        },{
          "refId":"p_restore_health_e",
          "count":3,
          "charge":-1,
          "enchantmentCharge":-1,
          "soul":""
        },{
          "refId":"t_ingmine_topaz_01",
          "count":1,
          "charge":-1,
          "enchantmentCharge":-1,
          "soul":""
        },{
          "refId":"ingred_sweetpulp_01",
          "count":3,
          "charge":-1,
          "enchantmentCharge":-1,
          "soul":""
        },{
          "refId":"t_ingmine_spinel_01",
          "count":1,
          "charge":-1,
          "enchantmentCharge":-1,
          "soul":""
        },{
          "refId":"ingred_sload_soap_01",
          "count":1,
          "charge":-1,
          "enchantmentCharge":-1,
          "soul":""
        },{
          "refId":"t_ingmine_sapphire_01",
          "count":1,
          "charge":-1,
          "enchantmentCharge":-1,
          "soul":""
        },{
          "refId":"ingred_pearl_01",
          "count":2,
          "charge":-1,
          "enchantmentCharge":-1,
          "soul":""
        }]
    },
    "515210-0":{
      "refId":"chest_small_01_gold_50",
      "inventory":[{
          "refId":"gold_001",
          "count":50,
          "charge":-1,
          "enchantmentCharge":-1,
          "soul":""
        }]
    },
    "515727-0":{
      "refId":"crate_01_empty",
      "inventory":[]
    },
    "515192-0":{
      "refId":"t_mwcom_var_sk1ing",
      "inventory":[{
          "refId":"ingred_marshmerrow_01",
          "count":1,
          "charge":-1,
          "enchantmentCharge":-1,
          "soul":""
        },{
          "refId":"ingred_scales_01",
          "count":1,
          "charge":-1,
          "enchantmentCharge":-1,
          "soul":""
        },{
          "refId":"ingred_green_lichen_01",
          "count":1,
          "charge":-1,
          "enchantmentCharge":-1,
          "soul":""
        }]
    },
    "515692-0":{
      "refId":"com_sack_01_chpfood5",
      "inventory":[{
          "refId":"ingred_hackle-lo_leaf_01",
          "count":5,
          "charge":-1,
          "enchantmentCharge":-1,
          "soul":""
        }]
    },
    "515189-0":{
      "refId":"crate_02_de_fclothes",
      "inventory":[{
          "refId":"common_shoes_02",
          "count":1,
          "charge":-1,
          "enchantmentCharge":-1,
          "soul":""
        },{
          "refId":"common_skirt_02",
          "count":1,
          "charge":-1,
          "enchantmentCharge":-1,
          "soul":""
        },{
          "refId":"expensive_belt_02",
          "count":1,
          "charge":-1,
          "enchantmentCharge":-1,
          "soul":""
        }]
    },
    "515729-0":{
      "refId":"crate_01_empty",
      "inventory":[]
    },
    "515190-0":{
      "refId":"com_chest_02_books",
      "inventory":[{
          "refId":"bk_ancestorsandthedunmer",
          "count":1,
          "charge":-1,
          "enchantmentCharge":-1,
          "soul":""
        },{
          "refId":"bk_annotatedanuad",
          "count":1,
          "charge":-1,
          "enchantmentCharge":-1,
          "soul":""
        },{
          "refId":"bk_anticipations",
          "count":1,
          "charge":-1,
          "enchantmentCharge":-1,
          "soul":""
        },{
          "refId":"bk_bookdawnanddusk",
          "count":1,
          "charge":-1,
          "enchantmentCharge":-1,
          "soul":""
        }]
    },
    "515610-0":{
      "refId":"flora_plant_04",
      "inventory":[{
          "refId":"ingred_meadow_rye_01",
          "count":2,
          "charge":-1,
          "enchantmentCharge":-1,
          "soul":""
        }]
    },
    "515693-0":{
      "refId":"com_sack_02_pos",
      "inventory":[]
    },
    "515191-0":{
      "refId":"com_chest_02_pillows",
      "inventory":[{
          "refId":"misc_uni_pillow_01",
          "count":3,
          "charge":-1,
          "enchantmentCharge":-1,
          "soul":""
        }]
    },
    "515691-0":{
      "refId":"crate_01",
      "inventory":[{
          "refId":"gold_001",
          "count":10,
          "charge":-1,
          "enchantmentCharge":-1,
          "soul":""
        }]
    },
    "0-324":{
      "refId":"t_news_bellman_35",
      "location":{
        "posX":-1195.3256835938,
        "posZ":1463.5870361328,
        "posY":-828.92095947266,
        "rotX":0,
        "rotY":0,
        "rotZ":0.39999985694885
      }
    },
    "515661-0":{
      "refId":"crate_01_random_pos",
      "inventory":[{
          "refId":"amulet of recall",
          "count":1,
          "charge":-1,
          "enchantmentCharge":-1,
          "soul":""
        },{
          "refId":"misc_com_redware_vase",
          "count":1,
          "charge":-1,
          "enchantmentCharge":-1,
          "soul":""
        },{
          "refId":"misc_com_wood_spoon_02",
          "count":1,
          "charge":-1,
          "enchantmentCharge":-1,
          "soul":""
        },{
          "refId":"misc_com_pitcher_metal_01",
          "count":1,
          "charge":-1,
          "enchantmentCharge":-1,
          "soul":""
        },{
          "refId":"misc_com_plate_01",
          "count":1,
          "charge":-1,
          "enchantmentCharge":-1,
          "soul":""
        },{
          "refId":"misc_com_wood_cup_01",
          "count":2,
          "charge":-1,
          "enchantmentCharge":-1,
          "soul":""
        },{
          "refId":"gold_001",
          "count":1,
          "charge":-1,
          "enchantmentCharge":-1,
          "soul":""
        }]
    },
    "515726-0":{
      "refId":"crate_01_empty",
      "inventory":[]
    },
    "515662-0":{
      "refId":"crate_02_food",
      "inventory":[{
          "refId":"ingred_bread_01",
          "count":3,
          "charge":-1,
          "enchantmentCharge":-1,
          "soul":""
        }]
    },
    "515186-0":{
      "refId":"barrel_02_shoes",
      "inventory":[{
          "refId":"common_shoes_01",
          "count":1,
          "charge":-1,
          "enchantmentCharge":-1,
          "soul":""
        },{
          "refId":"common_shoes_04",
          "count":1,
          "charge":-1,
          "enchantmentCharge":-1,
          "soul":""
        },{
          "refId":"common_shoes_05",
          "count":1,
          "charge":-1,
          "enchantmentCharge":-1,
          "soul":""
        },{
          "refId":"common_shoes_03",
          "count":1,
          "charge":-1,
          "enchantmentCharge":-1,
          "soul":""
        },{
          "refId":"common_shoes_02",
          "count":1,
          "charge":-1,
          "enchantmentCharge":-1,
          "soul":""
        },{
          "refId":"extravagant_shoes_02",
          "count":1,
          "charge":-1,
          "enchantmentCharge":-1,
          "soul":""
        }]
    },
    "515530-0":{
      "refId":"com_hutch_01_plates",
      "inventory":[{
          "refId":"misc_com_metal_plate_03",
          "count":4,
          "charge":-1,
          "enchantmentCharge":-1,
          "soul":""
        }]
    },
    "515605-0":{
      "refId":"crate_01_eggs",
      "inventory":[{
          "refId":"food_kwama_egg_02",
          "count":1,
          "charge":-1,
          "enchantmentCharge":-1,
          "soul":""
        }]
    },
    "515185-0":{
      "refId":"barrel_01_torch",
      "inventory":[{
          "refId":"torch",
          "count":5,
          "charge":-1,
          "enchantmentCharge":-1,
          "soul":""
        }]
    }
  },
  "loadState":{
    "hasFullContainerData":true,
    "hasFullActorList":true
  }
}