{
  "packets":{
    "actorList":["172858-0","119636-0","172857-0"],
    "ai":[],
    "cellChangeFrom":[],
    "cellChangeTo":[],
    "container":["414037-0","119529-0","119620-0","321345-0","119623-0","397572-0","397573-0","397574-0","397575-0","397576-0","397577-0","397578-0","172857-0","172858-0","119636-0"],
    "death":[],
    "delete":["454284-0","119619-0","119615-0","119616-0","321383-0","119611-0","119610-0","119612-0","321384-0","119609-0","119595-0","119597-0","119596-0","119594-0","119598-0","119593-0","119618-0","119617-0","119601-0","119602-0","119603-0","483189-0","321382-0","321385-0","321388-0","321386-0","321387-0","119600-0","454283-0","119580-0","119581-0","119582-0","454285-0","321391-0","454282-0","454281-0","322116-0","119579-0","119583-0","119577-0","321405-0","119614-0","321406-0","321408-0","321407-0","322117-0","406340-0","397571-0"],
    "doorState":["172860-0","397586-0"],
    "equipment":["172858-0","119636-0","172857-0"],
    "lock":["119623-0"],
    "place":[],
    "position":["119636-0","172857-0","172858-0"],
    "scale":[],
    "spawn":[],
    "state":[],
    "statsDynamic":["119636-0","172857-0","172858-0"],
    "trap":[],
    "spellsActive":[],
    "miscellaneous":["119636-0"],
    "clientScriptLocal":[]
  },
  "entry":{
    "creationTime":1648870816,
    "description":"Seyda Neen, Census and Excise Office"
  },
  "lastVisit":{
    "Arnas":1651025583,
    "test":1649036965,
    "Katherine":1651025584,
    "Matrim":1649815746
  },
  "recordLinks":[],
  "objectData":{
    "397577-0":{
      "refId":"com_sack_01_ingred",
      "inventory":[]
    },
    "397586-0":{
      "refId":"in_c_door_arched",
      "doorState":1
    },
    "119611-0":{
      "refId":"misc_com_redware_bowl_01"
    },
    "397571-0":{
      "refId":"misc_com_bucket_01"
    },
    "119577-0":{
      "refId":"chargen dagger"
    },
    "119636-0":{
      "refId":"chargen class",
      "location":{
        "posX":235.4305267334,
        "posZ":193,
        "posY":-103.22184753418,
        "rotX":0,
        "rotY":0,
        "rotZ":-1.570796251297
      },
      "stats":{
        "healthCurrent":102,
        "magickaCurrent":160,
        "healthModified":102,
        "fatigueBase":236,
        "fatigueModified":236,
        "healthBase":102,
        "magickaModified":160,
        "magickaBase":160,
        "fatigueCurrent":236
      },
      "equipment":{
        "7":{
          "refId":"common_shoes_03",
          "count":1,
          "charge":-1,
          "enchantmentCharge":-1
        },
        "16":{
          "refId":"steel shardblade",
          "count":1,
          "charge":-1,
          "enchantmentCharge":-1
        },
        "11":{
          "refId":"common_robe_05",
          "count":1,
          "charge":-1,
          "enchantmentCharge":-1
        }
      },
      "inventory":[{
          "refId":"common_robe_05",
          "count":1,
          "charge":-1,
          "enchantmentCharge":-1,
          "soul":""
        },{
          "refId":"common_shoes_03",
          "count":1,
          "charge":-1,
          "enchantmentCharge":-1,
          "soul":""
        },{
          "refId":"steel shardblade",
          "count":1,
          "charge":-1,
          "enchantmentCharge":-1,
          "soul":""
        }],
      "lastGoldRestockDay":2,
      "lastGoldRestockHour":8.073748588562,
      "goldPool":0
    },
    "119612-0":{
      "refId":"misc_com_redware_bowl_01"
    },
    "119614-0":{
      "refId":"misc_com_basket_02"
    },
    "119529-0":{
      "refId":"chest_small_02_rndgold",
      "inventory":[{
          "refId":"gold_001",
          "count":36,
          "charge":-1,
          "enchantmentCharge":-1,
          "soul":""
        }]
    },
    "406340-0":{
      "refId":"misc_com_bucket_01"
    },
    "321407-0":{
      "refId":"ingred_bread_01"
    },
    "454281-0":{
      "refId":"ingred_bread_01"
    },
    "321387-0":{
      "refId":"misc_com_metal_plate_05"
    },
    "119620-0":{
      "refId":"com_basket_01_chpfood",
      "inventory":[]
    },
    "119601-0":{
      "refId":"misc_com_metal_goblet_01"
    },
    "119615-0":{
      "refId":"misc_com_redware_flask"
    },
    "119583-0":{
      "refId":"misc_com_silverware_knife"
    },
    "321382-0":{
      "refId":"light_com_candle_05"
    },
    "454285-0":{
      "refId":"light_com_candle_10_128"
    },
    "321383-0":{
      "refId":"misc_com_redware_flask"
    },
    "397575-0":{
      "refId":"com_basket_chargen2",
      "inventory":[]
    },
    "119618-0":{
      "refId":"potion_local_brew_01"
    },
    "414037-0":{
      "refId":"stolen_goods",
      "inventory":[]
    },
    "397576-0":{
      "refId":"com_sack_01_ingred",
      "inventory":[]
    },
    "119598-0":{
      "refId":"misc_com_bottle_08"
    },
    "454282-0":{
      "refId":"potion_cyro_whiskey_01"
    },
    "119593-0":{
      "refId":"misc_com_bottle_08"
    },
    "454283-0":{
      "refId":"ingred_crab_meat_01"
    },
    "172858-0":{
      "refId":"chargen captain",
      "location":{
        "posX":1362.0061035156,
        "posZ":193,
        "posY":-368.98858642578,
        "rotX":0,
        "rotY":0,
        "rotZ":-1.570796251297
      },
      "stats":{
        "healthCurrent":186,
        "magickaCurrent":116,
        "healthModified":186,
        "fatigueBase":280,
        "fatigueModified":280,
        "healthBase":186,
        "magickaModified":116,
        "magickaBase":116,
        "fatigueCurrent":280
      },
      "equipment":[{
          "refId":"templar_cuirass",
          "count":1,
          "charge":-1,
          "enchantmentCharge":-1
        },null,{
          "refId":"templar_pauldron_left",
          "count":1,
          "charge":-1,
          "enchantmentCharge":-1
        },{
          "refId":"templar_pauldron_right",
          "count":1,
          "charge":-1,
          "enchantmentCharge":-1
        },{
          "refId":"templar bracer left",
          "count":1,
          "charge":-1,
          "enchantmentCharge":-1
        },{
          "refId":"templar bracer right",
          "count":1,
          "charge":-1,
          "enchantmentCharge":-1
        },{
          "refId":"templar boots",
          "count":1,
          "charge":-1,
          "enchantmentCharge":-1
        },null,{
          "refId":"common_pants_01",
          "count":1,
          "charge":-1,
          "enchantmentCharge":-1
        },null,null,null,null,null,{
          "refId":"templar belt",
          "count":1,
          "charge":-1,
          "enchantmentCharge":-1
        },{
          "refId":"imperial broadsword",
          "count":1,
          "charge":-1,
          "enchantmentCharge":-1
        }],
      "inventory":[{
          "refId":"templar bracer right",
          "count":1,
          "charge":-1,
          "enchantmentCharge":-1,
          "soul":""
        },{
          "refId":"templar bracer left",
          "count":1,
          "charge":-1,
          "enchantmentCharge":-1,
          "soul":""
        },{
          "refId":"templar boots",
          "count":1,
          "charge":-1,
          "enchantmentCharge":-1,
          "soul":""
        },{
          "refId":"templar_pauldron_right",
          "count":1,
          "charge":-1,
          "enchantmentCharge":-1,
          "soul":""
        },{
          "refId":"templar_pauldron_left",
          "count":1,
          "charge":-1,
          "enchantmentCharge":-1,
          "soul":""
        },{
          "refId":"templar_cuirass",
          "count":1,
          "charge":-1,
          "enchantmentCharge":-1,
          "soul":""
        },{
          "refId":"templar belt",
          "count":1,
          "charge":-1,
          "enchantmentCharge":-1,
          "soul":""
        },{
          "refId":"common_pants_01",
          "count":1,
          "charge":-1,
          "enchantmentCharge":-1,
          "soul":""
        },{
          "refId":"imperial broadsword",
          "count":1,
          "charge":-1,
          "enchantmentCharge":-1,
          "soul":""
        }]
    },
    "321384-0":{
      "refId":"misc_imp_silverware_bowl"
    },
    "321406-0":{
      "refId":"ingred_bread_01"
    },
    "119603-0":{
      "refId":"misc_com_metal_goblet_01"
    },
    "119616-0":{
      "refId":"misc_com_redware_flask"
    },
    "172860-0":{
      "refId":"chargen door hall",
      "doorState":1
    },
    "322116-0":{
      "refId":"sc_paper plain"
    },
    "397578-0":{
      "refId":"com_sack_03_ingredients",
      "inventory":[]
    },
    "172857-0":{
      "refId":"chargen door guard",
      "location":{
        "posX":65.931823730469,
        "posZ":193,
        "posY":180.46813964844,
        "rotX":0,
        "rotY":0,
        "rotZ":-3.1415927410126
      },
      "stats":{
        "healthCurrent":170,
        "magickaCurrent":110,
        "healthModified":170,
        "fatigueBase":265,
        "fatigueModified":265,
        "healthBase":170,
        "magickaModified":110,
        "magickaBase":110,
        "fatigueCurrent":265
      },
      "equipment":{
        "0":{
          "refId":"imperial helmet armor",
          "count":1,
          "charge":-1,
          "enchantmentCharge":-1
        },
        "1":{
          "refId":"imperial cuirass_armor",
          "count":1,
          "charge":-1,
          "enchantmentCharge":-1
        },
        "3":{
          "refId":"imperial left pauldron",
          "count":1,
          "charge":-1,
          "enchantmentCharge":-1
        },
        "4":{
          "refId":"imperial right pauldron",
          "count":1,
          "charge":-1,
          "enchantmentCharge":-1
        },
        "5":{
          "refId":"imperial left gauntlet",
          "count":1,
          "charge":-1,
          "enchantmentCharge":-1
        },
        "6":{
          "refId":"imperial right gauntlet",
          "count":1,
          "charge":-1,
          "enchantmentCharge":-1
        },
        "7":{
          "refId":"imperial boots",
          "count":1,
          "charge":-1,
          "enchantmentCharge":-1
        },
        "10":{
          "refId":"imperial skirt_clothing",
          "count":1,
          "charge":-1,
          "enchantmentCharge":-1
        },
        "15":{
          "refId":"imperial belt",
          "count":1,
          "charge":-1,
          "enchantmentCharge":-1
        },
        "16":{
          "refId":"imperial broadsword",
          "count":1,
          "charge":-1,
          "enchantmentCharge":-1
        },
        "17":{
          "refId":"imperial shield",
          "count":1,
          "charge":-1,
          "enchantmentCharge":-1
        }
      },
      "inventory":[{
          "refId":"imperial shield",
          "count":1,
          "charge":-1,
          "enchantmentCharge":-1,
          "soul":""
        },{
          "refId":"imperial right gauntlet",
          "count":1,
          "charge":-1,
          "enchantmentCharge":-1,
          "soul":""
        },{
          "refId":"imperial left gauntlet",
          "count":1,
          "charge":-1,
          "enchantmentCharge":-1,
          "soul":""
        },{
          "refId":"imperial boots",
          "count":1,
          "charge":-1,
          "enchantmentCharge":-1,
          "soul":""
        },{
          "refId":"imperial right pauldron",
          "count":1,
          "charge":-1,
          "enchantmentCharge":-1,
          "soul":""
        },{
          "refId":"imperial left pauldron",
          "count":1,
          "charge":-1,
          "enchantmentCharge":-1,
          "soul":""
        },{
          "refId":"imperial cuirass_armor",
          "count":1,
          "charge":-1,
          "enchantmentCharge":-1,
          "soul":""
        },{
          "refId":"imperial helmet armor",
          "count":1,
          "charge":-1,
          "enchantmentCharge":-1,
          "soul":""
        },{
          "refId":"imperial skirt_clothing",
          "count":1,
          "charge":-1,
          "enchantmentCharge":-1,
          "soul":""
        },{
          "refId":"imperial belt",
          "count":1,
          "charge":-1,
          "enchantmentCharge":-1,
          "soul":""
        },{
          "refId":"imperial broadsword",
          "count":1,
          "charge":-1,
          "enchantmentCharge":-1,
          "soul":""
        }]
    },
    "119597-0":{
      "refId":"misc_com_bottle_08"
    },
    "119594-0":{
      "refId":"misc_com_bottle_08"
    },
    "321391-0":{
      "refId":"misc_imp_silverware_pitcher"
    },
    "321405-0":{
      "refId":"note to hrisskar"
    },
    "119582-0":{
      "refId":"misc_com_silverware_fork"
    },
    "119602-0":{
      "refId":"misc_com_metal_goblet_01"
    },
    "321388-0":{
      "refId":"misc_com_metal_plate_05"
    },
    "321408-0":{
      "refId":"ingred_bread_01"
    },
    "119596-0":{
      "refId":"misc_com_bottle_08"
    },
    "321386-0":{
      "refId":"misc_com_metal_plate_05"
    },
    "321385-0":{
      "refId":"misc_com_metal_plate_05"
    },
    "483189-0":{
      "refId":"bk_firmament"
    },
    "322117-0":{
      "refId":"sc_paper plain"
    },
    "454284-0":{
      "refId":"pick_apprentice_01"
    },
    "397572-0":{
      "refId":"com_sack_01_ingred",
      "inventory":[]
    },
    "119580-0":{
      "refId":"misc_imp_silverware_plate_01"
    },
    "397574-0":{
      "refId":"com_sack_03_ingredients",
      "inventory":[]
    },
    "119595-0":{
      "refId":"misc_com_bottle_08"
    },
    "119617-0":{
      "refId":"potion_local_brew_01"
    },
    "119623-0":{
      "refId":"chest_small_02_lockprac",
      "inventory":[],
      "lockLevel":0
    },
    "119581-0":{
      "refId":"misc_imp_silverware_bowl"
    },
    "321345-0":{
      "refId":"com_basket_01_chpfood",
      "inventory":[]
    },
    "119600-0":{
      "refId":"misc_com_metal_goblet_01"
    },
    "119609-0":{
      "refId":"misc_imp_silverware_pitcher"
    },
    "119579-0":{
      "refId":"misc_imp_silverware_cup"
    },
    "397573-0":{
      "refId":"com_basket_01_chargen",
      "inventory":[]
    },
    "119619-0":{
      "refId":"food_kwama_egg_02"
    },
    "119610-0":{
      "refId":"misc_com_redware_bowl"
    }
  },
  "loadState":{
    "hasFullContainerData":true,
    "hasFullActorList":true
  }
}